EESchema Schematic File Version 4
EELAYER 30 0
EELAYER END
$Descr A4 11693 8268
encoding utf-8
Sheet 5 5
Title "1wire jacks and temp. sensor"
Date ""
Rev ""
Comp ""
Comment1 ""
Comment2 ""
Comment3 ""
Comment4 ""
$EndDescr
$Comp
L Sensor_Temperature:DS18B20 U?
U 1 1 5D34CC38
P 6050 4650
AR Path="/5D34CC38" Ref="U?"  Part="1" 
AR Path="/5D32BF15/5D34CC38" Ref="U3"  Part="1" 
F 0 "U3" H 5820 4696 50  0000 R CNN
F 1 "DS18B20U+" H 5820 4605 50  0000 R CNN
F 2 "Package_TO_SOT_THT:TO-92_Inline" H 5050 4400 50  0001 C CNN
F 3 "http://datasheets.maximintegrated.com/en/ds/DS18B20.pdf" H 5900 4900 50  0001 C CNN
F 4 "" H 6050 4650 50  0001 C CNN "Comment"
F 5 "Maxim Integrated" H 6050 4650 50  0001 C CNN "Hersteller"
F 6 "DS18B20U+" H 6050 4650 50  0001 C CNN "Herstellerteilenummer"
F 7 "2.74" H 6050 4650 50  0001 C CNN "Kosten_1"
F 8 "2.5" H 6050 4650 50  0001 C CNN "Kosten_10"
F 9 "2.41" H 6050 4650 50  0001 C CNN "Kosten_100"
F 10 "2.41" H 6050 4650 50  0001 C CNN "Kosten_1000"
F 11 "SMD" H 6050 4650 50  0001 C CNN "Technologie"
	1    6050 4650
	-1   0    0    -1  
$EndComp
$Comp
L Device:R R?
U 1 1 5D34CC3E
P 5200 2350
AR Path="/5D34CC3E" Ref="R?"  Part="1" 
AR Path="/5D32BF15/5D34CC3E" Ref="R9"  Part="1" 
F 0 "R9" H 5270 2396 50  0000 L CNN
F 1 "4,7k" H 5270 2305 50  0000 L CNN
F 2 "Resistor_SMD:R_0805_2012Metric" V 5130 2350 50  0001 C CNN
F 3 "~" H 5200 2350 50  0001 C CNN
F 4 "0.09" H 5200 2350 50  0001 C CNN "Kosten_1"
F 5 "0.052" H 5200 2350 50  0001 C CNN "Kosten_10"
F 6 "0.021" H 5200 2350 50  0001 C CNN "Kosten_100"
F 7 "0.0007" H 5200 2350 50  0001 C CNN "Kosten_1000"
F 8 "SMD" H 5200 2350 50  0001 C CNN "Technologie"
F 9 "Vishay / Dale" H 5200 2350 50  0001 C CNN "Hersteller"
F 10 "CRCW08054K70FKEAC" H 5200 2350 50  0001 C CNN "Herstellerteilenummer"
	1    5200 2350
	1    0    0    -1  
$EndComp
$Comp
L power:GND #PWR?
U 1 1 5D34CC44
P 6050 4950
AR Path="/5D34CC44" Ref="#PWR?"  Part="1" 
AR Path="/5D32BF15/5D34CC44" Ref="#PWR026"  Part="1" 
F 0 "#PWR026" H 6050 4700 50  0001 C CNN
F 1 "GND" H 6055 4777 50  0000 C CNN
F 2 "" H 6050 4950 50  0001 C CNN
F 3 "" H 6050 4950 50  0001 C CNN
	1    6050 4950
	-1   0    0    -1  
$EndComp
Connection ~ 5200 2700
Wire Wire Line
	5200 2700 5200 2500
Wire Wire Line
	4850 2700 5200 2700
Wire Wire Line
	5200 2100 5200 2200
$Comp
L power:GND #PWR?
U 1 1 5D34CC51
P 6100 3800
AR Path="/5D34CC51" Ref="#PWR?"  Part="1" 
AR Path="/5D32BF15/5D34CC51" Ref="#PWR028"  Part="1" 
F 0 "#PWR028" H 6100 3550 50  0001 C CNN
F 1 "GND" H 6105 3627 50  0000 C CNN
F 2 "" H 6100 3800 50  0001 C CNN
F 3 "" H 6100 3800 50  0001 C CNN
	1    6100 3800
	1    0    0    -1  
$EndComp
$Comp
L power:+3.3V #PWR?
U 1 1 5D34CC5D
P 5450 2100
AR Path="/5D34CC5D" Ref="#PWR?"  Part="1" 
AR Path="/5D32BF15/5D34CC5D" Ref="#PWR020"  Part="1" 
F 0 "#PWR020" H 5450 1950 50  0001 C CNN
F 1 "+3.3V" H 5465 2273 50  0000 C CNN
F 2 "" H 5450 2100 50  0001 C CNN
F 3 "" H 5450 2100 50  0001 C CNN
	1    5450 2100
	1    0    0    -1  
$EndComp
$Comp
L power:+3.3V #PWR?
U 1 1 5D34CC63
P 5200 2100
AR Path="/5D34CC63" Ref="#PWR?"  Part="1" 
AR Path="/5D32BF15/5D34CC63" Ref="#PWR019"  Part="1" 
F 0 "#PWR019" H 5200 1950 50  0001 C CNN
F 1 "+3.3V" H 5215 2273 50  0000 C CNN
F 2 "" H 5200 2100 50  0001 C CNN
F 3 "" H 5200 2100 50  0001 C CNN
	1    5200 2100
	1    0    0    -1  
$EndComp
Wire Wire Line
	6050 4350 6050 4250
Wire Wire Line
	6050 4250 5450 4250
Wire Wire Line
	5750 4650 5200 4650
$Comp
L Device:C C?
U 1 1 5D34CC86
P 6400 5150
AR Path="/5D34CC86" Ref="C?"  Part="1" 
AR Path="/5D32BF15/5D34CC86" Ref="C6"  Part="1" 
F 0 "C6" H 6515 5196 50  0000 L CNN
F 1 "0.1u" H 6515 5105 50  0000 L CNN
F 2 "Capacitor_SMD:C_0805_2012Metric" H 6438 5000 50  0001 C CNN
F 3 "~" H 6400 5150 50  0001 C CNN
F 4 "Wurth Elektronik " H 6400 5150 50  0001 C CNN "Hersteller"
F 5 "885012207098 " H 6400 5150 50  0001 C CNN "Herstellerteilenummer"
F 6 "710-885012207098 " H 6400 5150 50  0001 C CNN "Mouser"
F 7 "0.06" H 6400 5150 50  0001 C CNN "Kosten_1"
F 8 "0.06" H 6400 5150 50  0001 C CNN "Kosten_10"
F 9 "0.039" H 6400 5150 50  0001 C CNN "Kosten_100"
F 10 "SMD" H 6400 5150 50  0001 C CNN "Technologie"
	1    6400 5150
	1    0    0    -1  
$EndComp
$Comp
L power:GND #PWR?
U 1 1 5D34CC8C
P 6400 5300
AR Path="/5D34CC8C" Ref="#PWR?"  Part="1" 
AR Path="/5D32BF15/5D34CC8C" Ref="#PWR030"  Part="1" 
F 0 "#PWR030" H 6400 5050 50  0001 C CNN
F 1 "GND" H 6405 5127 50  0000 C CNN
F 2 "" H 6400 5300 50  0001 C CNN
F 3 "" H 6400 5300 50  0001 C CNN
	1    6400 5300
	1    0    0    -1  
$EndComp
$Comp
L power:+3.3V #PWR?
U 1 1 5D34CC92
P 6400 5000
AR Path="/5D34CC92" Ref="#PWR?"  Part="1" 
AR Path="/5D32BF15/5D34CC92" Ref="#PWR029"  Part="1" 
F 0 "#PWR029" H 6400 4850 50  0001 C CNN
F 1 "+3.3V" H 6415 5173 50  0000 C CNN
F 2 "" H 6400 5000 50  0001 C CNN
F 3 "" H 6400 5000 50  0001 C CNN
	1    6400 5000
	1    0    0    -1  
$EndComp
Text HLabel 4850 2700 0    50   Input ~ 0
1WIRE
Wire Wire Line
	5450 2100 5450 2600
$Comp
L Connector:AudioJack3 J4
U 1 1 5D3B0249
P 6500 2600
F 0 "J4" H 6220 2625 50  0000 R CNN
F 1 "AudioJack3" H 6220 2534 50  0000 R CNN
F 2 "Connector_Audio:Jack_3.5mm_CUI_SJ-3524-SMT_Horizontal" H 6500 2600 50  0001 C CNN
F 3 "~" H 6500 2600 50  0001 C CNN
F 4 "CUI Inc." H 6500 2600 50  0001 C CNN "Hersteller"
F 5 "SJ-3523-SMT-TR" H 6500 2600 50  0001 C CNN "Herstellerteilenummer"
F 6 "0.801" H 6500 2600 50  0001 C CNN "Kosten_1"
F 7 "0.7" H 6500 2600 50  0001 C CNN "Kosten_10"
F 8 "0.605" H 6500 2600 50  0001 C CNN "Kosten_100"
F 9 "0.439" H 6500 2600 50  0001 C CNN "Kosten_1000"
F 10 "SMD" H 6500 2600 50  0001 C CNN "Technologie"
	1    6500 2600
	-1   0    0    -1  
$EndComp
$Comp
L Connector:AudioJack3 J12
U 1 1 5D3B0A01
P 6500 3400
F 0 "J12" H 6220 3425 50  0000 R CNN
F 1 "AudioJack3" H 6220 3334 50  0000 R CNN
F 2 "Connector_Audio:Jack_3.5mm_CUI_SJ-3524-SMT_Horizontal" H 6500 3400 50  0001 C CNN
F 3 "~" H 6500 3400 50  0001 C CNN
F 4 "CUI Inc." H 6500 3400 50  0001 C CNN "Hersteller"
F 5 "SJ-3523-SMT-TR" H 6500 3400 50  0001 C CNN "Herstellerteilenummer"
F 6 "0.801" H 6500 3400 50  0001 C CNN "Kosten_1"
F 7 "0.7" H 6500 3400 50  0001 C CNN "Kosten_10"
F 8 "0.605" H 6500 3400 50  0001 C CNN "Kosten_100"
F 9 "0.439" H 6500 3400 50  0001 C CNN "Kosten_1000"
F 10 "SMD" H 6500 3400 50  0001 C CNN "Technologie"
	1    6500 3400
	-1   0    0    -1  
$EndComp
Wire Wire Line
	5200 2700 6300 2700
Wire Wire Line
	5200 3500 6300 3500
Wire Wire Line
	5450 2600 6300 2600
Wire Wire Line
	6300 3300 6100 3300
Wire Wire Line
	6100 3300 6100 3800
Wire Wire Line
	5450 3400 6300 3400
Wire Wire Line
	6100 2500 6300 2500
Connection ~ 6100 3300
Wire Wire Line
	6100 2500 6100 3300
Connection ~ 5200 3500
Connection ~ 5450 2600
Connection ~ 5450 3400
Wire Wire Line
	5200 2700 5200 3500
Wire Wire Line
	5450 2600 5450 3400
Wire Wire Line
	5450 3400 5450 4250
Wire Wire Line
	5200 3500 5200 4650
$EndSCHEMATC
