EESchema Schematic File Version 4
EELAYER 30 0
EELAYER END
$Descr A4 11693 8268
encoding utf-8
Sheet 2 5
Title "LED Driver"
Date ""
Rev ""
Comp ""
Comment1 ""
Comment2 ""
Comment3 ""
Comment4 ""
$EndDescr
$Comp
L power:GND #PWR?
U 1 1 5D97AA4D
P 3500 7100
AR Path="/5D97AA4D" Ref="#PWR?"  Part="1" 
AR Path="/5D951669/5D97AA4D" Ref="#PWR035"  Part="1" 
F 0 "#PWR035" H 3500 6850 50  0001 C CNN
F 1 "GND" H 3505 6927 50  0000 C CNN
F 2 "" H 3500 7100 50  0001 C CNN
F 3 "" H 3500 7100 50  0001 C CNN
	1    3500 7100
	1    0    0    -1  
$EndComp
Wire Wire Line
	3500 7050 3500 7100
Wire Wire Line
	3500 4950 3500 4850
$Comp
L Connector_Generic:Conn_01x02 J?
U 1 1 5D97AA55
P 7950 1350
AR Path="/5D97AA55" Ref="J?"  Part="1" 
AR Path="/5D951669/5D97AA55" Ref="J6"  Part="1" 
F 0 "J6" H 8030 1342 50  0000 L CNN
F 1 "LED_PWR_IN" H 8030 1251 50  0000 L CNN
F 2 "TerminalBlock_RND:TerminalBlock_RND_205-00001_1x02_P5.00mm_Horizontal" H 7950 1350 50  0001 C CNN
F 3 "~" H 7950 1350 50  0001 C CNN
F 4 "THT" H 7950 1350 50  0001 C CNN "Technologie"
F 5 "Amphenol Anytek" H 7950 1350 50  0001 C CNN "Hersteller"
F 6 "VI0221550000G" H 7950 1350 50  0001 C CNN "Herstellerteilenummer"
	1    7950 1350
	1    0    0    -1  
$EndComp
$Comp
L Connector_Generic:Conn_01x02 J?
U 1 1 5D97AA5B
P 7950 2000
AR Path="/5D97AA5B" Ref="J?"  Part="1" 
AR Path="/5D951669/5D97AA5B" Ref="J7"  Part="1" 
F 0 "J7" H 8030 1992 50  0000 L CNN
F 1 "Conn_01x02" H 8030 1901 50  0000 L CNN
F 2 "TerminalBlock_RND:TerminalBlock_RND_205-00001_1x02_P5.00mm_Horizontal" H 7950 2000 50  0001 C CNN
F 3 "~" H 7950 2000 50  0001 C CNN
F 4 "THT" H 7950 2000 50  0001 C CNN "Technologie"
F 5 "Amphenol Anytek" H 7950 2000 50  0001 C CNN "Hersteller"
F 6 "VI0221550000G" H 7950 2000 50  0001 C CNN "Herstellerteilenummer"
	1    7950 2000
	1    0    0    -1  
$EndComp
$Comp
L Connector_Generic:Conn_01x02 J?
U 1 1 5D97AA61
P 7950 2950
AR Path="/5D97AA61" Ref="J?"  Part="1" 
AR Path="/5D951669/5D97AA61" Ref="J8"  Part="1" 
F 0 "J8" H 8030 2942 50  0000 L CNN
F 1 "Conn_01x02" H 8030 2851 50  0000 L CNN
F 2 "TerminalBlock_RND:TerminalBlock_RND_205-00001_1x02_P5.00mm_Horizontal" H 7950 2950 50  0001 C CNN
F 3 "~" H 7950 2950 50  0001 C CNN
F 4 "THT" H 7950 2950 50  0001 C CNN "Technologie"
F 5 "Amphenol Anytek" H 7950 2950 50  0001 C CNN "Hersteller"
F 6 "VI0221550000G" H 7950 2950 50  0001 C CNN "Herstellerteilenummer"
	1    7950 2950
	1    0    0    -1  
$EndComp
$Comp
L Connector_Generic:Conn_01x02 J?
U 1 1 5D97AA67
P 7950 3600
AR Path="/5D97AA67" Ref="J?"  Part="1" 
AR Path="/5D951669/5D97AA67" Ref="J9"  Part="1" 
F 0 "J9" H 8030 3592 50  0000 L CNN
F 1 "Conn_01x02" H 8030 3501 50  0000 L CNN
F 2 "TerminalBlock_RND:TerminalBlock_RND_205-00001_1x02_P5.00mm_Horizontal" H 7950 3600 50  0001 C CNN
F 3 "~" H 7950 3600 50  0001 C CNN
F 4 "THT" H 7950 3600 50  0001 C CNN "Technologie"
F 5 "Amphenol Anytek" H 7950 3600 50  0001 C CNN "Hersteller"
F 6 "VI0221550000G" H 7950 3600 50  0001 C CNN "Herstellerteilenummer"
	1    7950 3600
	1    0    0    -1  
$EndComp
$Comp
L Connector_Generic:Conn_01x02 J?
U 1 1 5D97AA6D
P 7950 4250
AR Path="/5D97AA6D" Ref="J?"  Part="1" 
AR Path="/5D951669/5D97AA6D" Ref="J10"  Part="1" 
F 0 "J10" H 8030 4242 50  0000 L CNN
F 1 "Conn_01x02" H 8030 4151 50  0000 L CNN
F 2 "TerminalBlock_RND:TerminalBlock_RND_205-00001_1x02_P5.00mm_Horizontal" H 7950 4250 50  0001 C CNN
F 3 "~" H 7950 4250 50  0001 C CNN
F 4 "THT" H 7950 4250 50  0001 C CNN "Technologie"
F 5 "Amphenol Anytek" H 7950 4250 50  0001 C CNN "Hersteller"
F 6 "VI0221550000G" H 7950 4250 50  0001 C CNN "Herstellerteilenummer"
	1    7950 4250
	1    0    0    -1  
$EndComp
$Comp
L power:GND #PWR?
U 1 1 5D97AA73
P 6050 4750
AR Path="/5D97AA73" Ref="#PWR?"  Part="1" 
AR Path="/5D951669/5D97AA73" Ref="#PWR041"  Part="1" 
F 0 "#PWR041" H 6050 4500 50  0001 C CNN
F 1 "GND" H 6055 4577 50  0000 C CNN
F 2 "" H 6050 4750 50  0001 C CNN
F 3 "" H 6050 4750 50  0001 C CNN
	1    6050 4750
	-1   0    0    -1  
$EndComp
$Comp
L power:Vdrive #PWR?
U 1 1 5D97AA79
P 7600 1250
AR Path="/5D97AA79" Ref="#PWR?"  Part="1" 
AR Path="/5D951669/5D97AA79" Ref="#PWR042"  Part="1" 
F 0 "#PWR042" H 7400 1100 50  0001 C CNN
F 1 "Vdrive" H 7617 1423 50  0000 C CNN
F 2 "" H 7600 1250 50  0001 C CNN
F 3 "" H 7600 1250 50  0001 C CNN
	1    7600 1250
	1    0    0    -1  
$EndComp
Wire Wire Line
	7750 1350 7600 1350
Wire Wire Line
	7600 1350 7600 1250
$Comp
L power:+5V #PWR?
U 1 1 5D97AA81
P 3500 4850
AR Path="/5D97AA81" Ref="#PWR?"  Part="1" 
AR Path="/5D951669/5D97AA81" Ref="#PWR034"  Part="1" 
F 0 "#PWR034" H 3500 4700 50  0001 C CNN
F 1 "+5V" H 3515 5023 50  0000 C CNN
F 2 "" H 3500 4850 50  0001 C CNN
F 3 "" H 3500 4850 50  0001 C CNN
	1    3500 4850
	1    0    0    -1  
$EndComp
$Comp
L Transistor_FET:IRLZ34N Q?
U 1 1 5D97AA87
P 5950 2600
AR Path="/5D97AA87" Ref="Q?"  Part="1" 
AR Path="/5D951669/5D97AA87" Ref="Q2"  Part="1" 
F 0 "Q2" H 6156 2646 50  0000 L CNN
F 1 "IRLZ24N" H 6156 2555 50  0000 L CNN
F 2 "Package_TO_SOT_THT:TO-220-3_Vertical" H 6200 2525 50  0001 L CIN
F 3 "" H 5950 2600 50  0001 L CNN
F 4 "Infineon Technologies" H 5950 2600 50  0001 C CNN "Hersteller"
F 5 "IRLZ24NPBF" H 5950 2600 50  0001 C CNN "Herstellerteilenummer"
F 6 "0.0828" H 5950 2600 50  0001 C CNN "Kosten_1"
F 7 "0.691" H 5950 2600 50  0001 C CNN "Kosten_10"
F 8 "0.446" H 5950 2600 50  0001 C CNN "Kosten_100"
F 9 "0.0356" H 5950 2600 50  0001 C CNN "Kosten_1000"
F 10 "THT" H 5950 2600 50  0001 C CNN "Technologie"
	1    5950 2600
	1    0    0    -1  
$EndComp
$Comp
L Transistor_FET:IRLZ34N Q?
U 1 1 5D97AA8D
P 5950 3250
AR Path="/5D97AA8D" Ref="Q?"  Part="1" 
AR Path="/5D951669/5D97AA8D" Ref="Q3"  Part="1" 
F 0 "Q3" H 6156 3296 50  0000 L CNN
F 1 "IRLZ24N" H 6156 3205 50  0000 L CNN
F 2 "Package_TO_SOT_THT:TO-220-3_Vertical" H 6200 3175 50  0001 L CIN
F 3 "" H 5950 3250 50  0001 L CNN
F 4 "Infineon Technologies" H 5950 3250 50  0001 C CNN "Hersteller"
F 5 "IRLZ24NPBF" H 5950 3250 50  0001 C CNN "Herstellerteilenummer"
F 6 "0.0828" H 5950 3250 50  0001 C CNN "Kosten_1"
F 7 "0.691" H 5950 3250 50  0001 C CNN "Kosten_10"
F 8 "0.446" H 5950 3250 50  0001 C CNN "Kosten_100"
F 9 "0.0356" H 5950 3250 50  0001 C CNN "Kosten_1000"
F 10 "THT" H 5950 3250 50  0001 C CNN "Technologie"
	1    5950 3250
	1    0    0    -1  
$EndComp
$Comp
L Transistor_FET:IRLZ34N Q?
U 1 1 5D97AA93
P 5950 3900
AR Path="/5D97AA93" Ref="Q?"  Part="1" 
AR Path="/5D951669/5D97AA93" Ref="Q4"  Part="1" 
F 0 "Q4" H 6156 3946 50  0000 L CNN
F 1 "IRLZ24N" H 6156 3855 50  0000 L CNN
F 2 "Package_TO_SOT_THT:TO-220-3_Vertical" H 6200 3825 50  0001 L CIN
F 3 "" H 5950 3900 50  0001 L CNN
F 4 "Infineon Technologies" H 5950 3900 50  0001 C CNN "Hersteller"
F 5 "IRLZ24NPBF" H 5950 3900 50  0001 C CNN "Herstellerteilenummer"
F 6 "0.0828" H 5950 3900 50  0001 C CNN "Kosten_1"
F 7 "0.691" H 5950 3900 50  0001 C CNN "Kosten_10"
F 8 "0.446" H 5950 3900 50  0001 C CNN "Kosten_100"
F 9 "0.0356" H 5950 3900 50  0001 C CNN "Kosten_1000"
F 10 "THT" H 5950 3900 50  0001 C CNN "Technologie"
	1    5950 3900
	1    0    0    -1  
$EndComp
$Comp
L Transistor_FET:IRLZ34N Q?
U 1 1 5D97AA99
P 5950 4550
AR Path="/5D97AA99" Ref="Q?"  Part="1" 
AR Path="/5D951669/5D97AA99" Ref="Q5"  Part="1" 
F 0 "Q5" H 6156 4596 50  0000 L CNN
F 1 "IRLZ24N" H 6156 4505 50  0000 L CNN
F 2 "Package_TO_SOT_THT:TO-220-3_Vertical" H 6200 4475 50  0001 L CIN
F 3 "" H 5950 4550 50  0001 L CNN
F 4 "Infineon Technologies" H 5950 4550 50  0001 C CNN "Hersteller"
F 5 "IRLZ24NPBF" H 5950 4550 50  0001 C CNN "Herstellerteilenummer"
F 6 "0.0828" H 5950 4550 50  0001 C CNN "Kosten_1"
F 7 "0.691" H 5950 4550 50  0001 C CNN "Kosten_10"
F 8 "0.446" H 5950 4550 50  0001 C CNN "Kosten_100"
F 9 "0.0356" H 5950 4550 50  0001 C CNN "Kosten_1000"
F 10 "THT" H 5950 4550 50  0001 C CNN "Technologie"
	1    5950 4550
	1    0    0    -1  
$EndComp
Wire Wire Line
	6050 3700 6600 3700
Connection ~ 7600 1350
Wire Wire Line
	7750 2950 7600 2950
Wire Wire Line
	7750 3600 7600 3600
Wire Wire Line
	7600 3600 7600 2950
Connection ~ 7600 2950
Wire Wire Line
	7750 4250 7600 4250
Wire Wire Line
	7600 4250 7600 3600
Connection ~ 7600 3600
$Comp
L power:GND #PWR?
U 1 1 5D97AAAC
P 6050 4100
AR Path="/5D97AAAC" Ref="#PWR?"  Part="1" 
AR Path="/5D951669/5D97AAAC" Ref="#PWR040"  Part="1" 
F 0 "#PWR040" H 6050 3850 50  0001 C CNN
F 1 "GND" H 6055 3927 50  0000 C CNN
F 2 "" H 6050 4100 50  0001 C CNN
F 3 "" H 6050 4100 50  0001 C CNN
	1    6050 4100
	-1   0    0    -1  
$EndComp
$Comp
L power:GND #PWR?
U 1 1 5D97AAB2
P 6050 3450
AR Path="/5D97AAB2" Ref="#PWR?"  Part="1" 
AR Path="/5D951669/5D97AAB2" Ref="#PWR039"  Part="1" 
F 0 "#PWR039" H 6050 3200 50  0001 C CNN
F 1 "GND" H 6055 3277 50  0000 C CNN
F 2 "" H 6050 3450 50  0001 C CNN
F 3 "" H 6050 3450 50  0001 C CNN
	1    6050 3450
	-1   0    0    -1  
$EndComp
$Comp
L power:GND #PWR?
U 1 1 5D97AAB8
P 6050 2800
AR Path="/5D97AAB8" Ref="#PWR?"  Part="1" 
AR Path="/5D951669/5D97AAB8" Ref="#PWR038"  Part="1" 
F 0 "#PWR038" H 6050 2550 50  0001 C CNN
F 1 "GND" H 6055 2627 50  0000 C CNN
F 2 "" H 6050 2800 50  0001 C CNN
F 3 "" H 6050 2800 50  0001 C CNN
	1    6050 2800
	-1   0    0    -1  
$EndComp
Wire Wire Line
	5150 2600 5400 2600
Wire Wire Line
	5750 3250 5400 3250
Wire Wire Line
	6050 2100 6050 2400
$Comp
L power:GND #PWR?
U 1 1 5D97AAD4
P 7700 1500
AR Path="/5D97AAD4" Ref="#PWR?"  Part="1" 
AR Path="/5D951669/5D97AAD4" Ref="#PWR043"  Part="1" 
F 0 "#PWR043" H 7700 1250 50  0001 C CNN
F 1 "GND" H 7705 1327 50  0000 C CNN
F 2 "" H 7700 1500 50  0001 C CNN
F 3 "" H 7700 1500 50  0001 C CNN
	1    7700 1500
	1    0    0    -1  
$EndComp
Wire Wire Line
	7750 1450 7700 1450
Wire Wire Line
	7700 1450 7700 1500
$Comp
L power:PWR_FLAG #FLG?
U 1 1 5D97AAEA
P 7300 1250
AR Path="/5D97AAEA" Ref="#FLG?"  Part="1" 
AR Path="/5D951669/5D97AAEA" Ref="#FLG02"  Part="1" 
F 0 "#FLG02" H 7300 1325 50  0001 C CNN
F 1 "PWR_FLAG" H 7300 1423 50  0000 C CNN
F 2 "" H 7300 1250 50  0001 C CNN
F 3 "~" H 7300 1250 50  0001 C CNN
	1    7300 1250
	1    0    0    -1  
$EndComp
Wire Wire Line
	7600 1350 7300 1350
Wire Wire Line
	7300 1350 7300 1250
Text HLabel 2550 5250 0    50   Input ~ 0
SCL
Text HLabel 2550 5350 0    50   Input ~ 0
SDA
$Comp
L power:GND #PWR?
U 1 1 5D99CF27
P 2700 6850
AR Path="/5D99CF27" Ref="#PWR?"  Part="1" 
AR Path="/5D951669/5D99CF27" Ref="#PWR031"  Part="1" 
F 0 "#PWR031" H 2700 6600 50  0001 C CNN
F 1 "GND" H 2705 6677 50  0000 C CNN
F 2 "" H 2700 6850 50  0001 C CNN
F 3 "" H 2700 6850 50  0001 C CNN
	1    2700 6850
	1    0    0    -1  
$EndComp
Wire Wire Line
	5150 5250 4200 5250
Wire Wire Line
	5150 2600 5150 5250
Wire Wire Line
	4200 5350 5200 5350
Wire Wire Line
	5200 3250 5200 5350
Wire Wire Line
	5750 3900 5400 3900
Wire Wire Line
	5250 3900 5250 5450
Wire Wire Line
	5250 5450 4200 5450
Wire Wire Line
	4200 5550 5300 5550
Wire Wire Line
	5300 5550 5300 4550
Wire Wire Line
	5300 4550 5400 4550
Wire Wire Line
	2550 5350 2800 5350
Wire Wire Line
	2550 5250 2800 5250
$Comp
L Driver_LED:PCA9685PW U?
U 1 1 5D97AA45
P 3500 5950
AR Path="/5D97AA45" Ref="U?"  Part="1" 
AR Path="/5D951669/5D97AA45" Ref="U4"  Part="1" 
F 0 "U4" H 3500 6150 50  0000 C CNN
F 1 "PCA9685PW" H 3500 6050 50  0000 C CNN
F 2 "Package_SO:TSSOP-28_4.4x9.7mm_P0.65mm" H 3525 4975 50  0001 L CNN
F 3 "http://www.nxp.com/documents/data_sheet/PCA9685.pdf" H 3100 6650 50  0001 C CNN
F 4 "NXP Semiconductors" H 3500 5950 50  0001 C CNN "Hersteller"
F 5 "PCA9685PW,118" H 3500 5950 50  0001 C CNN "Herstellerteilenummer"
F 6 "2.03" H 3500 5950 50  0001 C CNN "Kosten_1"
F 7 "2.73" H 3500 5950 50  0001 C CNN "Kosten_10"
F 8 "2.39" H 3500 5950 50  0001 C CNN "Kosten_100"
F 9 "1.01" H 3500 5950 50  0001 C CNN "Kosten_1000"
F 10 "SMD" H 3500 5950 50  0001 C CNN "Technologie"
	1    3500 5950
	1    0    0    -1  
$EndComp
Wire Wire Line
	2800 6650 2700 6650
Wire Wire Line
	2700 6650 2700 6850
Wire Wire Line
	2700 6650 2700 6550
Wire Wire Line
	2700 6550 2800 6550
Connection ~ 2700 6650
Wire Wire Line
	2700 6550 2700 6450
Wire Wire Line
	2700 6450 2800 6450
Connection ~ 2700 6550
Wire Wire Line
	2700 6450 2700 6350
Wire Wire Line
	2700 6350 2800 6350
Connection ~ 2700 6450
Wire Wire Line
	2700 6350 2700 6250
Wire Wire Line
	2700 6250 2800 6250
Connection ~ 2700 6350
Wire Wire Line
	2700 6250 2700 6150
Wire Wire Line
	2700 6150 2800 6150
Connection ~ 2700 6250
Wire Wire Line
	2700 6150 2700 5550
Wire Wire Line
	2700 5550 2800 5550
Connection ~ 2700 6150
Wire Wire Line
	2800 5450 2700 5450
Wire Wire Line
	2700 5450 2700 5550
Connection ~ 2700 5550
$Comp
L Connector:TestPoint TP1
U 1 1 5DACEB74
P 5400 2400
F 0 "TP1" H 5458 2518 50  0000 L CNN
F 1 "TestPoint" H 5458 2427 50  0000 L CNN
F 2 "TestPoint:TestPoint_Pad_D1.5mm" H 5600 2400 50  0001 C CNN
F 3 "~" H 5600 2400 50  0001 C CNN
	1    5400 2400
	1    0    0    -1  
$EndComp
$Comp
L Connector:TestPoint TP2
U 1 1 5DACF732
P 5400 3100
F 0 "TP2" H 5458 3218 50  0000 L CNN
F 1 "TestPoint" H 5458 3127 50  0000 L CNN
F 2 "TestPoint:TestPoint_Pad_D1.5mm" H 5600 3100 50  0001 C CNN
F 3 "~" H 5600 3100 50  0001 C CNN
	1    5400 3100
	1    0    0    -1  
$EndComp
$Comp
L Connector:TestPoint TP3
U 1 1 5DACF975
P 5400 3800
F 0 "TP3" H 5458 3918 50  0000 L CNN
F 1 "TestPoint" H 5458 3827 50  0000 L CNN
F 2 "TestPoint:TestPoint_Pad_D1.5mm" H 5600 3800 50  0001 C CNN
F 3 "~" H 5600 3800 50  0001 C CNN
	1    5400 3800
	1    0    0    -1  
$EndComp
$Comp
L Connector:TestPoint TP4
U 1 1 5DACFB9B
P 5400 4400
F 0 "TP4" H 5458 4518 50  0000 L CNN
F 1 "TestPoint" H 5458 4427 50  0000 L CNN
F 2 "TestPoint:TestPoint_Pad_D1.5mm" H 5600 4400 50  0001 C CNN
F 3 "~" H 5600 4400 50  0001 C CNN
	1    5400 4400
	1    0    0    -1  
$EndComp
Wire Wire Line
	5400 2400 5400 2600
Connection ~ 5400 2600
Wire Wire Line
	5400 2600 5750 2600
Wire Wire Line
	5400 3100 5400 3250
Connection ~ 5400 3250
Wire Wire Line
	5400 3250 5200 3250
Wire Wire Line
	5400 3800 5400 3900
Connection ~ 5400 3900
Wire Wire Line
	5400 3900 5250 3900
Wire Wire Line
	5400 4400 5400 4550
Connection ~ 5400 4550
Wire Wire Line
	5400 4550 5750 4550
$Comp
L Device:C C3
U 1 1 5DBD5E88
P 2900 4600
F 0 "C3" H 3015 4646 50  0000 L CNN
F 1 "0.1u" H 3015 4555 50  0000 L CNN
F 2 "Capacitor_SMD:C_0805_2012Metric" H 2938 4450 50  0001 C CNN
F 3 "~" H 2900 4600 50  0001 C CNN
F 4 "Wurth Elektronik " H 2900 4600 50  0001 C CNN "Hersteller"
F 5 "885012207098 " H 2900 4600 50  0001 C CNN "Herstellerteilenummer"
F 6 "710-885012207098 " H 2900 4600 50  0001 C CNN "Mouser"
F 7 "0.06" H 2900 4600 50  0001 C CNN "Kosten_1"
F 8 "0.06" H 2900 4600 50  0001 C CNN "Kosten_10"
F 9 "0.039" H 2900 4600 50  0001 C CNN "Kosten_100"
F 10 "SMD" H 2900 4600 50  0001 C CNN "Technologie"
	1    2900 4600
	1    0    0    -1  
$EndComp
$Comp
L power:+5V #PWR?
U 1 1 5DBD6424
P 2900 4450
AR Path="/5DBD6424" Ref="#PWR?"  Part="1" 
AR Path="/5D951669/5DBD6424" Ref="#PWR032"  Part="1" 
F 0 "#PWR032" H 2900 4300 50  0001 C CNN
F 1 "+5V" H 2915 4623 50  0000 C CNN
F 2 "" H 2900 4450 50  0001 C CNN
F 3 "" H 2900 4450 50  0001 C CNN
	1    2900 4450
	1    0    0    -1  
$EndComp
$Comp
L power:GND #PWR?
U 1 1 5DBD6982
P 2900 4750
AR Path="/5DBD6982" Ref="#PWR?"  Part="1" 
AR Path="/5D951669/5DBD6982" Ref="#PWR033"  Part="1" 
F 0 "#PWR033" H 2900 4500 50  0001 C CNN
F 1 "GND" H 2905 4577 50  0000 C CNN
F 2 "" H 2900 4750 50  0001 C CNN
F 3 "" H 2900 4750 50  0001 C CNN
	1    2900 4750
	1    0    0    -1  
$EndComp
NoConn ~ 4200 6450
NoConn ~ 4200 6550
NoConn ~ 4200 6650
NoConn ~ 4200 6750
$Comp
L Connector_Generic:Conn_01x08 J5
U 1 1 5DC34193
P 6250 5850
F 0 "J5" H 6330 5842 50  0000 L CNN
F 1 "Conn_01x08" H 6330 5751 50  0000 L CNN
F 2 "SamacSys_Parts:1821300" H 6250 5850 50  0001 C CNN
F 3 "~" H 6250 5850 50  0001 C CNN
F 4 "Phoenix Contact" H 6250 5850 50  0001 C CNN "Hersteller"
F 5 "1821300" H 6250 5850 50  0001 C CNN "Herstellerteilenummer"
F 6 "THT" H 6250 5850 50  0001 C CNN "Technologie"
	1    6250 5850
	1    0    0    -1  
$EndComp
$Comp
L power:GND #PWR?
U 1 1 5DD71F1D
P 5900 6350
AR Path="/5DD71F1D" Ref="#PWR?"  Part="1" 
AR Path="/5D951669/5DD71F1D" Ref="#PWR037"  Part="1" 
F 0 "#PWR037" H 5900 6100 50  0001 C CNN
F 1 "GND" H 5905 6177 50  0000 C CNN
F 2 "" H 5900 6350 50  0001 C CNN
F 3 "" H 5900 6350 50  0001 C CNN
	1    5900 6350
	1    0    0    -1  
$EndComp
$Comp
L power:+5V #PWR?
U 1 1 5DD722D8
P 5900 5500
AR Path="/5DD722D8" Ref="#PWR?"  Part="1" 
AR Path="/5D951669/5DD722D8" Ref="#PWR036"  Part="1" 
F 0 "#PWR036" H 5900 5350 50  0001 C CNN
F 1 "+5V" H 5915 5673 50  0000 C CNN
F 2 "" H 5900 5500 50  0001 C CNN
F 3 "" H 5900 5500 50  0001 C CNN
	1    5900 5500
	1    0    0    -1  
$EndComp
Wire Wire Line
	6050 5550 5900 5550
Wire Wire Line
	5900 5550 5900 5500
Wire Wire Line
	6050 6250 5900 6250
Wire Wire Line
	5900 6250 5900 6350
Wire Wire Line
	4200 5650 6050 5650
Wire Wire Line
	6050 5750 4200 5750
Wire Wire Line
	4200 5850 6050 5850
Wire Wire Line
	4200 5950 6050 5950
Wire Wire Line
	4200 6050 6050 6050
Wire Wire Line
	6050 6150 4200 6150
NoConn ~ 4200 6250
NoConn ~ 4200 6350
$Comp
L Connector:TestPoint TP5
U 1 1 5E0F4EA7
P 6600 1950
F 0 "TP5" H 6658 2068 50  0000 L CNN
F 1 "TestPoint" H 6658 1977 50  0000 L CNN
F 2 "TestPoint:TestPoint_Pad_D1.5mm" H 6800 1950 50  0001 C CNN
F 3 "~" H 6800 1950 50  0001 C CNN
	1    6600 1950
	1    0    0    -1  
$EndComp
$Comp
L Connector:TestPoint TP6
U 1 1 5E0F5465
P 6600 2900
F 0 "TP6" H 6658 3018 50  0000 L CNN
F 1 "TestPoint" H 6658 2927 50  0000 L CNN
F 2 "TestPoint:TestPoint_Pad_D1.5mm" H 6800 2900 50  0001 C CNN
F 3 "~" H 6800 2900 50  0001 C CNN
	1    6600 2900
	1    0    0    -1  
$EndComp
$Comp
L Connector:TestPoint TP7
U 1 1 5E0F5A3E
P 6600 3550
F 0 "TP7" H 6658 3668 50  0000 L CNN
F 1 "TestPoint" H 6658 3577 50  0000 L CNN
F 2 "TestPoint:TestPoint_Pad_D1.5mm" H 6800 3550 50  0001 C CNN
F 3 "~" H 6800 3550 50  0001 C CNN
	1    6600 3550
	1    0    0    -1  
$EndComp
Connection ~ 6600 3700
$Comp
L Connector:TestPoint TP8
U 1 1 5E0F5E08
P 6600 4200
F 0 "TP8" H 6658 4318 50  0000 L CNN
F 1 "TestPoint" H 6658 4227 50  0000 L CNN
F 2 "TestPoint:TestPoint_Pad_D1.5mm" H 6800 4200 50  0001 C CNN
F 3 "~" H 6800 4200 50  0001 C CNN
	1    6600 4200
	1    0    0    -1  
$EndComp
Wire Wire Line
	6600 3700 6600 3550
Wire Wire Line
	6050 3050 6600 3050
Wire Wire Line
	6050 4350 6600 4350
Wire Wire Line
	6050 2100 6600 2100
Wire Wire Line
	6600 3050 6600 2900
Connection ~ 6600 3050
Wire Wire Line
	6600 4200 6600 4350
Connection ~ 6600 4350
Wire Wire Line
	6600 1950 6600 2100
Connection ~ 6600 2100
Wire Wire Line
	6600 4350 7750 4350
Wire Wire Line
	6600 3700 7750 3700
Wire Wire Line
	6600 3050 7750 3050
Wire Wire Line
	6600 2100 7750 2100
Wire Wire Line
	7750 2000 7600 2000
Wire Wire Line
	7600 2000 7600 2950
Wire Wire Line
	7600 1350 7600 2000
Connection ~ 7600 2000
Text Label 7100 2100 0    50   ~ 0
LED_PWR_1
Text Label 7100 3050 0    50   ~ 0
LED_PWR_2
Text Label 7100 3700 0    50   ~ 0
LED_PWR_3
Text Label 7100 4350 0    50   ~ 0
LED_PWR_4
$EndSCHEMATC
