EESchema Schematic File Version 4
EELAYER 30 0
EELAYER END
$Descr A4 11693 8268
encoding utf-8
Sheet 3 5
Title "Power supply"
Date ""
Rev ""
Comp ""
Comment1 ""
Comment2 ""
Comment3 ""
Comment4 ""
$EndDescr
$Comp
L Connector:Barrel_Jack J?
U 1 1 5E010C6A
P 2200 2950
AR Path="/5E010C6A" Ref="J?"  Part="1" 
AR Path="/5DFBD21F/5E010C6A" Ref="J11"  Part="1" 
F 0 "J11" H 2257 3275 50  0000 C CNN
F 1 "Barrel_Jack" H 2257 3184 50  0000 C CNN
F 2 "Connector_BarrelJack:BarrelJack_Horizontal" H 2250 2910 50  0001 C CNN
F 3 "~" H 2250 2910 50  0001 C CNN
F 4 "CUI Inc." H 2200 2950 50  0001 C CNN "Hersteller"
F 5 "490-PJ-002A" H 2200 2950 50  0001 C CNN "Herstellerteilenummer"
F 6 "Evtl gegen SMD-Version tauschen" H 2200 2950 50  0001 C CNN "Comment"
F 7 "0.54" H 2200 2950 50  0001 C CNN "Kosten_1"
F 8 "0.503" H 2200 2950 50  0001 C CNN "Kosten_10"
F 9 "0.385" H 2200 2950 50  0001 C CNN "Kosten_100"
F 10 "0.276" H 2200 2950 50  0001 C CNN "Kosten_1000"
F 11 "SMD" H 2200 2950 50  0001 C CNN "Technologie"
	1    2200 2950
	1    0    0    -1  
$EndComp
$Comp
L power:+9V #PWR?
U 1 1 5E010C70
P 4050 2400
AR Path="/5E010C70" Ref="#PWR?"  Part="1" 
AR Path="/5DFBD21F/5E010C70" Ref="#PWR045"  Part="1" 
F 0 "#PWR045" H 4050 2250 50  0001 C CNN
F 1 "+9V" H 4065 2573 50  0000 C CNN
F 2 "" H 4050 2400 50  0001 C CNN
F 3 "" H 4050 2400 50  0001 C CNN
	1    4050 2400
	1    0    0    -1  
$EndComp
Wire Wire Line
	4050 2850 4050 2400
$Comp
L power:GND #PWR?
U 1 1 5E010C78
P 3400 3400
AR Path="/5E010C78" Ref="#PWR?"  Part="1" 
AR Path="/5DFBD21F/5E010C78" Ref="#PWR044"  Part="1" 
F 0 "#PWR044" H 3400 3150 50  0001 C CNN
F 1 "GND" H 3405 3227 50  0000 C CNN
F 2 "" H 3400 3400 50  0001 C CNN
F 3 "" H 3400 3400 50  0001 C CNN
	1    3400 3400
	1    0    0    -1  
$EndComp
$Comp
L Regulator_Switching:LM2575-5.0BU U?
U 1 1 5E010C7F
P 4950 2950
AR Path="/5E010C7F" Ref="U?"  Part="1" 
AR Path="/5DFBD21F/5E010C7F" Ref="U5"  Part="1" 
F 0 "U5" H 4950 3317 50  0000 C CNN
F 1 "LM2575-5.0BT" H 4950 3226 50  0000 C CNN
F 2 "Package_TO_SOT_SMD:TO-263-5_TabPin3" H 4950 2700 50  0001 L CIN
F 3 "http://ww1.microchip.com/downloads/en/DeviceDoc/lm2575.pdf" H 4950 2950 50  0001 C CNN
F 4 "Texas Instruments" H 4950 2950 50  0001 C CNN "Hersteller"
F 5 "TL2575-05IKTTRG3 " H 4950 2950 50  0001 C CNN "Herstellerteilenummer"
F 6 "2.05" H 4950 2950 50  0001 C CNN "Kosten_1"
F 7 "1.75" H 4950 2950 50  0001 C CNN "Kosten_10"
F 8 "1.4" H 4950 2950 50  0001 C CNN "Kosten_100"
F 9 "1.22" H 4950 2950 50  0001 C CNN "Kosten_1000"
F 10 "SMD" H 4950 2950 50  0001 C CNN "Technologie"
	1    4950 2950
	1    0    0    -1  
$EndComp
$Comp
L Diode:1N5819 D?
U 1 1 5E010C85
P 5700 3350
AR Path="/5E010C85" Ref="D?"  Part="1" 
AR Path="/5DFBD21F/5E010C85" Ref="D3"  Part="1" 
F 0 "D3" V 5654 3429 50  0000 L CNN
F 1 "1N5819" V 5745 3429 50  0000 L CNN
F 2 "Diode_SMD:D_SOD-123" H 5700 3175 50  0001 C CNN
F 3 "http://www.vishay.com/docs/88525/1n5817.pdf" H 5700 3350 50  0001 C CNN
F 4 "Diodes Incorporated" H 5700 3350 50  0001 C CNN "Hersteller"
F 5 "1N5819HWQ-7-F" H 5700 3350 50  0001 C CNN "Herstellerteilenummer"
F 6 "0.333" H 5700 3350 50  0001 C CNN "Kosten_1"
F 7 "0.239" H 5700 3350 50  0001 C CNN "Kosten_10"
F 8 "0.11" H 5700 3350 50  0001 C CNN "Kosten_100"
F 9 "0.085" H 5700 3350 50  0001 C CNN "Kosten_1000"
F 10 "SMD" H 5700 3350 50  0001 C CNN "Technologie"
	1    5700 3350
	0    1    1    0   
$EndComp
$Comp
L Device:L L?
U 1 1 5E010C8B
P 6050 3050
AR Path="/5E010C8B" Ref="L?"  Part="1" 
AR Path="/5DFBD21F/5E010C8B" Ref="L1"  Part="1" 
F 0 "L1" V 6240 3050 50  0000 C CNN
F 1 "330µ" V 6149 3050 50  0000 C CNN
F 2 "Inductor_SMD:L_Wuerth_WE-PD-Typ-LS_Handsoldering" H 6050 3050 50  0001 C CNN
F 3 "~" H 6050 3050 50  0001 C CNN
F 4 "Gibt billigere mit anderem Footprint!" H 6050 3050 50  0001 C CNN "Comment"
F 5 "Würth Elektronik" H 6050 3050 50  0001 C CNN "Hersteller"
F 6 "784770331 " H 6050 3050 50  0001 C CNN "Herstellerteilenummer"
F 7 "1.91" H 6050 3050 50  0001 C CNN "Kosten_1"
F 8 "1.9" H 6050 3050 50  0001 C CNN "Kosten_10"
F 9 "1.69" H 6050 3050 50  0001 C CNN "Kosten_100"
F 10 "1.49" H 6050 3050 50  0001 C CNN "Kosten_1000"
F 11 "SMD" H 6050 3050 50  0001 C CNN "Technologie"
	1    6050 3050
	0    -1   -1   0   
$EndComp
$Comp
L Device:CP C?
U 1 1 5E010C91
P 6400 3350
AR Path="/5E010C91" Ref="C?"  Part="1" 
AR Path="/5DFBD21F/5E010C91" Ref="C5"  Part="1" 
F 0 "C5" H 6518 3396 50  0000 L CNN
F 1 "330µ" H 6518 3305 50  0000 L CNN
F 2 "Capacitor_SMD:CP_Elec_8x10" H 6438 3200 50  0001 C CNN
F 3 "~" H 6400 3350 50  0001 C CNN
F 4 "Nichicon " H 6400 3350 50  0001 C CNN "Hersteller"
F 5 "UWT1E331MNL1GS " H 6400 3350 50  0001 C CNN "Herstellerteilenummer"
F 6 "647-UWT1E331MNL1S " H 6400 3350 50  0001 C CNN "Mouser"
F 7 "0.387" H 6400 3350 50  0001 C CNN "Kosten_1"
F 8 "0.387" H 6400 3350 50  0001 C CNN "Kosten_10"
F 9 "0.183" H 6400 3350 50  0001 C CNN "Kosten_100"
F 10 "0.124" H 6400 3350 50  0001 C CNN "Kosten_1000"
F 11 "SMD" H 6400 3350 50  0001 C CNN "Technologie"
	1    6400 3350
	1    0    0    -1  
$EndComp
$Comp
L Device:CP C?
U 1 1 5E010C97
P 4050 3300
AR Path="/5E010C97" Ref="C?"  Part="1" 
AR Path="/5DFBD21F/5E010C97" Ref="C4"  Part="1" 
F 0 "C4" H 4168 3346 50  0000 L CNN
F 1 "100µ" H 4168 3255 50  0000 L CNN
F 2 "Capacitor_SMD:CP_Elec_6.3x7.7" H 4088 3150 50  0001 C CNN
F 3 "~" H 4050 3300 50  0001 C CNN
F 4 "Lelon" H 4050 3300 50  0001 C CNN "Hersteller"
F 5 "VZL101M1ETR-0607 " H 4050 3300 50  0001 C CNN "Herstellerteilenummer"
F 6 "140-VZL101M1ETR-0607" H 4050 3300 50  0001 C CNN "Mouser"
F 7 "0.227" H 4050 3300 50  0001 C CNN "Kosten_1"
F 8 "0.227" H 4050 3300 50  0001 C CNN "Kosten_10"
F 9 "0.108" H 4050 3300 50  0001 C CNN "Kosten_100"
F 10 "0.091" H 4050 3300 50  0001 C CNN "Kosten_1000"
F 11 "SMD" H 4050 3300 50  0001 C CNN "Technologie"
	1    4050 3300
	1    0    0    -1  
$EndComp
$Comp
L power:GND #PWR?
U 1 1 5E010C9D
P 4950 3600
AR Path="/5E010C9D" Ref="#PWR?"  Part="1" 
AR Path="/5DFBD21F/5E010C9D" Ref="#PWR048"  Part="1" 
F 0 "#PWR048" H 4950 3350 50  0001 C CNN
F 1 "GND" H 4955 3427 50  0000 C CNN
F 2 "" H 4950 3600 50  0001 C CNN
F 3 "" H 4950 3600 50  0001 C CNN
	1    4950 3600
	1    0    0    -1  
$EndComp
$Comp
L power:GND #PWR?
U 1 1 5E010CA3
P 4050 3600
AR Path="/5E010CA3" Ref="#PWR?"  Part="1" 
AR Path="/5DFBD21F/5E010CA3" Ref="#PWR046"  Part="1" 
F 0 "#PWR046" H 4050 3350 50  0001 C CNN
F 1 "GND" H 4055 3427 50  0000 C CNN
F 2 "" H 4050 3600 50  0001 C CNN
F 3 "" H 4050 3600 50  0001 C CNN
	1    4050 3600
	1    0    0    -1  
$EndComp
$Comp
L power:GND #PWR?
U 1 1 5E010CA9
P 5700 3600
AR Path="/5E010CA9" Ref="#PWR?"  Part="1" 
AR Path="/5DFBD21F/5E010CA9" Ref="#PWR049"  Part="1" 
F 0 "#PWR049" H 5700 3350 50  0001 C CNN
F 1 "GND" H 5705 3427 50  0000 C CNN
F 2 "" H 5700 3600 50  0001 C CNN
F 3 "" H 5700 3600 50  0001 C CNN
	1    5700 3600
	1    0    0    -1  
$EndComp
$Comp
L power:GND #PWR?
U 1 1 5E010CAF
P 6400 3600
AR Path="/5E010CAF" Ref="#PWR?"  Part="1" 
AR Path="/5DFBD21F/5E010CAF" Ref="#PWR050"  Part="1" 
F 0 "#PWR050" H 6400 3350 50  0001 C CNN
F 1 "GND" H 6405 3427 50  0000 C CNN
F 2 "" H 6400 3600 50  0001 C CNN
F 3 "" H 6400 3600 50  0001 C CNN
	1    6400 3600
	1    0    0    -1  
$EndComp
Wire Wire Line
	5900 3050 5700 3050
Wire Wire Line
	5700 3050 5700 3200
Connection ~ 5700 3050
Wire Wire Line
	5700 3050 5450 3050
Wire Wire Line
	6200 3050 6400 3050
Wire Wire Line
	6400 3050 6400 3200
Wire Wire Line
	6400 3500 6400 3600
Wire Wire Line
	5700 3600 5700 3500
Wire Wire Line
	4950 3250 4950 3600
Wire Wire Line
	4050 3600 4050 3450
$Comp
L power:GND #PWR?
U 1 1 5E010CBF
P 4400 3600
AR Path="/5E010CBF" Ref="#PWR?"  Part="1" 
AR Path="/5DFBD21F/5E010CBF" Ref="#PWR047"  Part="1" 
F 0 "#PWR047" H 4400 3350 50  0001 C CNN
F 1 "GND" H 4405 3427 50  0000 C CNN
F 2 "" H 4400 3600 50  0001 C CNN
F 3 "" H 4400 3600 50  0001 C CNN
	1    4400 3600
	1    0    0    -1  
$EndComp
Wire Wire Line
	4400 3600 4400 3050
Wire Wire Line
	4400 3050 4450 3050
Connection ~ 4050 2850
Wire Wire Line
	4050 3150 4050 2850
Wire Wire Line
	4050 2850 4350 2850
Wire Wire Line
	6400 3050 6400 2850
Wire Wire Line
	6400 2850 5450 2850
Connection ~ 6400 3050
$Comp
L power:+5V #PWR?
U 1 1 5E010CCE
P 9400 2500
AR Path="/5E010CCE" Ref="#PWR?"  Part="1" 
AR Path="/5DFBD21F/5E010CCE" Ref="#PWR052"  Part="1" 
F 0 "#PWR052" H 9400 2350 50  0001 C CNN
F 1 "+5V" H 9415 2673 50  0000 C CNN
F 2 "" H 9400 2500 50  0001 C CNN
F 3 "" H 9400 2500 50  0001 C CNN
	1    9400 2500
	1    0    0    -1  
$EndComp
Wire Wire Line
	9400 2500 9400 3050
$Comp
L power:PWR_FLAG #FLG?
U 1 1 5E010CE3
P 4350 2400
AR Path="/5E010CE3" Ref="#FLG?"  Part="1" 
AR Path="/5DFBD21F/5E010CE3" Ref="#FLG04"  Part="1" 
F 0 "#FLG04" H 4350 2475 50  0001 C CNN
F 1 "PWR_FLAG" H 4350 2573 50  0000 C CNN
F 2 "" H 4350 2400 50  0001 C CNN
F 3 "~" H 4350 2400 50  0001 C CNN
	1    4350 2400
	1    0    0    -1  
$EndComp
Wire Wire Line
	4350 2400 4350 2850
Connection ~ 4350 2850
Wire Wire Line
	4350 2850 4450 2850
$Comp
L power:PWR_FLAG #FLG?
U 1 1 5E010CEC
P 3600 3200
AR Path="/5E010CEC" Ref="#FLG?"  Part="1" 
AR Path="/5DFBD21F/5E010CEC" Ref="#FLG03"  Part="1" 
F 0 "#FLG03" H 3600 3275 50  0001 C CNN
F 1 "PWR_FLAG" H 3600 3373 50  0000 C CNN
F 2 "" H 3600 3200 50  0001 C CNN
F 3 "~" H 3600 3200 50  0001 C CNN
	1    3600 3200
	1    0    0    -1  
$EndComp
Wire Wire Line
	3400 3050 3400 3250
Wire Wire Line
	3600 3200 3600 3250
Wire Wire Line
	3600 3250 3400 3250
Connection ~ 3400 3250
Wire Wire Line
	3400 3250 3400 3400
$Comp
L Device:Polyfuse F?
U 1 1 5E010D08
P 3150 2850
AR Path="/5E010D08" Ref="F?"  Part="1" 
AR Path="/5DFBD21F/5E010D08" Ref="F1"  Part="1" 
F 0 "F1" V 2925 2850 50  0000 C CNN
F 1 "Polyfuse" V 3016 2850 50  0000 C CNN
F 2 "Fuse:Fuse_2920_7451Metric" H 3200 2650 50  0001 L CNN
F 3 "~" H 3150 2850 50  0001 C CNN
F 4 "Littelfuse" H 3150 2850 50  0001 C CNN "Hersteller"
F 5 "2920L125PR" H 3150 2850 50  0001 C CNN "Herstellerteilenummer"
F 6 "0.594" H 3150 2850 50  0001 C CNN "Kosten_1"
F 7 "0.468" H 3150 2850 50  0001 C CNN "Kosten_10"
F 8 "0.389" H 3150 2850 50  0001 C CNN "Kosten_100"
F 9 "0.354" H 3150 2850 50  0001 C CNN "Kosten_1000"
F 10 "SMD" H 3150 2850 50  0001 C CNN "Technologie"
	1    3150 2850
	0    1    1    0   
$EndComp
Wire Wire Line
	3300 2850 3600 2850
$Comp
L Connector:TestPoint TP10
U 1 1 5D25994A
P 7850 2750
F 0 "TP10" H 7908 2868 50  0000 L CNN
F 1 "TestPoint" H 7908 2777 50  0000 L CNN
F 2 "TestPoint:TestPoint_Pad_D1.5mm" H 8050 2750 50  0001 C CNN
F 3 "~" H 8050 2750 50  0001 C CNN
	1    7850 2750
	1    0    0    -1  
$EndComp
Wire Wire Line
	7850 3050 7850 2750
$Comp
L Connector:TestPoint TP11
U 1 1 5D25C6D8
P 8850 2750
F 0 "TP11" H 8908 2868 50  0000 L CNN
F 1 "TestPoint" H 8908 2777 50  0000 L CNN
F 2 "TestPoint:TestPoint_Pad_D1.5mm" H 9050 2750 50  0001 C CNN
F 3 "~" H 9050 2750 50  0001 C CNN
	1    8850 2750
	1    0    0    -1  
$EndComp
$Comp
L Connector:TestPoint TP9
U 1 1 5D26048C
P 3600 2500
F 0 "TP9" H 3658 2618 50  0000 L CNN
F 1 "TestPoint" H 3658 2527 50  0000 L CNN
F 2 "TestPoint:TestPoint_Pad_D1.5mm" H 3800 2500 50  0001 C CNN
F 3 "~" H 3800 2500 50  0001 C CNN
	1    3600 2500
	1    0    0    -1  
$EndComp
Wire Wire Line
	3600 2500 3600 2850
Connection ~ 3600 2850
Wire Wire Line
	3600 2850 4050 2850
Wire Wire Line
	7950 3150 7850 3150
Wire Wire Line
	7850 3150 7850 3050
Connection ~ 7850 3050
Wire Wire Line
	7950 3050 7850 3050
Wire Wire Line
	8750 3150 8850 3150
Wire Wire Line
	8850 3150 8850 3050
Connection ~ 8850 3050
Wire Wire Line
	8850 3050 8750 3050
$Comp
L ScapersPi:SIP32509DT-T1-GE3 U7
U 1 1 5D27F993
P 8350 3150
AR Path="/5D27F993" Ref="U7"  Part="1" 
AR Path="/5DFBD21F/5D27F993" Ref="U7"  Part="1" 
F 0 "U7" H 8350 3517 50  0000 C CNN
F 1 "SIP32509DT-T1-GE3" H 8350 3426 50  0000 C CNN
F 2 "Package_TO_SOT_SMD:TSOT-23-6" H 8350 3500 50  0001 C CNN
F 3 "http://www.skyworksinc.com/uploads/documents/201937A.pdf" H 8300 3450 50  0001 C CNN
F 4 "Vishay / Siliconix" H 8350 3150 50  0001 C CNN "Hersteller"
F 5 "SIP32509DT-T1-GE3" H 8350 3150 50  0001 C CNN "Herstellerteilenummer"
F 6 "0.369" H 8350 3150 50  0001 C CNN "Kosten_1"
F 7 "0.293" H 8350 3150 50  0001 C CNN "Kosten_10"
F 8 "0.218" H 8350 3150 50  0001 C CNN "Kosten_100"
F 9 "0.14" H 8350 3150 50  0001 C CNN "Kosten_1000"
F 10 "SMD" H 8350 3150 50  0001 C CNN "Technologie"
	1    8350 3150
	1    0    0    -1  
$EndComp
Wire Wire Line
	8850 3050 8850 2750
$Comp
L power:GND #PWR?
U 1 1 5D298F8F
P 8350 3550
AR Path="/5D298F8F" Ref="#PWR?"  Part="1" 
AR Path="/5DFBD21F/5D298F8F" Ref="#PWR0107"  Part="1" 
F 0 "#PWR0107" H 8350 3300 50  0001 C CNN
F 1 "GND" H 8355 3377 50  0000 C CNN
F 2 "" H 8350 3550 50  0001 C CNN
F 3 "" H 8350 3550 50  0001 C CNN
	1    8350 3550
	1    0    0    -1  
$EndComp
Text HLabel 2950 4850 0    50   Input ~ 0
EN
Wire Wire Line
	2950 4850 3200 4850
Wire Wire Line
	7750 3350 7950 3350
$Comp
L Device:R R15
U 1 1 5D29D69B
P 3200 4550
F 0 "R15" H 3270 4596 50  0000 L CNN
F 1 "10k" H 3270 4505 50  0000 L CNN
F 2 "Resistor_SMD:R_0805_2012Metric" V 3130 4550 50  0001 C CNN
F 3 "~" H 3200 4550 50  0001 C CNN
F 4 "0.09" H 3200 4550 50  0001 C CNN "Kosten_1"
F 5 "0.052" H 3200 4550 50  0001 C CNN "Kosten_10"
F 6 "0.021" H 3200 4550 50  0001 C CNN "Kosten_100"
F 7 "0.0007" H 3200 4550 50  0001 C CNN "Kosten_1000"
F 8 "SMD" H 3200 4550 50  0001 C CNN "Technologie"
F 9 "Vishay / Dale" H 3200 4550 50  0001 C CNN "Hersteller"
F 10 "CRCW080510K0FKEAC" H 3200 4550 50  0001 C CNN "Herstellerteilenummer"
	1    3200 4550
	1    0    0    -1  
$EndComp
$Comp
L power:+5VA #PWR0108
U 1 1 5D29EA00
P 3200 4250
F 0 "#PWR0108" H 3200 4100 50  0001 C CNN
F 1 "+5VA" H 3215 4423 50  0000 C CNN
F 2 "" H 3200 4250 50  0001 C CNN
F 3 "" H 3200 4250 50  0001 C CNN
	1    3200 4250
	1    0    0    -1  
$EndComp
Wire Wire Line
	3200 4250 3200 4400
Wire Wire Line
	3200 4700 3200 4850
Connection ~ 3200 4850
$Comp
L power:+5VA #PWR0109
U 1 1 5D2A1FE7
P 7500 2500
F 0 "#PWR0109" H 7500 2350 50  0001 C CNN
F 1 "+5VA" H 7515 2673 50  0000 C CNN
F 2 "" H 7500 2500 50  0001 C CNN
F 3 "" H 7500 2500 50  0001 C CNN
	1    7500 2500
	1    0    0    -1  
$EndComp
Wire Wire Line
	7500 2500 7500 3050
Connection ~ 7500 3050
Wire Wire Line
	7500 3050 7850 3050
$Comp
L power:PWR_FLAG #FLG?
U 1 1 5D2A6363
P 7100 2500
AR Path="/5D2A6363" Ref="#FLG?"  Part="1" 
AR Path="/5DFBD21F/5D2A6363" Ref="#FLG0101"  Part="1" 
F 0 "#FLG0101" H 7100 2575 50  0001 C CNN
F 1 "PWR_FLAG" H 7100 2673 50  0000 C CNN
F 2 "" H 7100 2500 50  0001 C CNN
F 3 "~" H 7100 2500 50  0001 C CNN
	1    7100 2500
	1    0    0    -1  
$EndComp
Wire Wire Line
	7100 2500 7100 3050
Connection ~ 7100 3050
Wire Wire Line
	7100 3050 7400 3050
Wire Wire Line
	8850 3050 9100 3050
$Comp
L Device:C C8
U 1 1 5D43C5C7
P 7400 3300
F 0 "C8" H 7515 3346 50  0000 L CNN
F 1 "4.7u" H 7515 3255 50  0000 L CNN
F 2 "Capacitor_SMD:C_0805_2012Metric" H 7438 3150 50  0001 C CNN
F 3 "~" H 7400 3300 50  0001 C CNN
F 4 "Ceramic" H 7400 3300 50  0001 C CNN "Type"
F 5 "Walsin" H 7400 3300 50  0001 C CNN "Hersteller"
F 6 "0805X475M250CT" H 7400 3300 50  0001 C CNN "Herstellerteilenummer"
F 7 "0.108" H 7400 3300 50  0001 C CNN "Kosten_1"
F 8 "0.108" H 7400 3300 50  0001 C CNN "Kosten_10"
F 9 "0.099" H 7400 3300 50  0001 C CNN "Kosten_100"
F 10 "0.077" H 7400 3300 50  0001 C CNN "Kosten_1000"
F 11 "SMD" H 7400 3300 50  0001 C CNN "Technologie"
	1    7400 3300
	1    0    0    -1  
$EndComp
Wire Wire Line
	3200 4850 4000 4850
Wire Wire Line
	7400 3050 7400 3150
Connection ~ 7400 3050
Wire Wire Line
	7400 3050 7500 3050
$Comp
L power:GND #PWR?
U 1 1 5D44209E
P 7400 3600
AR Path="/5D44209E" Ref="#PWR?"  Part="1" 
AR Path="/5DFBD21F/5D44209E" Ref="#PWR051"  Part="1" 
F 0 "#PWR051" H 7400 3350 50  0001 C CNN
F 1 "GND" H 7405 3427 50  0000 C CNN
F 2 "" H 7400 3600 50  0001 C CNN
F 3 "" H 7400 3600 50  0001 C CNN
	1    7400 3600
	1    0    0    -1  
$EndComp
Wire Wire Line
	7400 3450 7400 3600
$Comp
L Device:C C9
U 1 1 5D44328A
P 9100 3300
F 0 "C9" H 9215 3346 50  0000 L CNN
F 1 "0.1u" H 9215 3255 50  0000 L CNN
F 2 "Capacitor_SMD:C_0805_2012Metric" H 9138 3150 50  0001 C CNN
F 3 "~" H 9100 3300 50  0001 C CNN
F 4 "Wurth Elektronik " H 9100 3300 50  0001 C CNN "Hersteller"
F 5 "885012207098 " H 9100 3300 50  0001 C CNN "Herstellerteilenummer"
F 6 "710-885012207098 " H 9100 3300 50  0001 C CNN "Mouser"
F 7 "0.06" H 9100 3300 50  0001 C CNN "Kosten_1"
F 8 "0.06" H 9100 3300 50  0001 C CNN "Kosten_10"
F 9 "0.039" H 9100 3300 50  0001 C CNN "Kosten_100"
F 10 "SMD" H 9100 3300 50  0001 C CNN "Technologie"
	1    9100 3300
	1    0    0    -1  
$EndComp
Wire Wire Line
	9100 3150 9100 3050
Connection ~ 9100 3050
Wire Wire Line
	9100 3050 9400 3050
$Comp
L power:GND #PWR?
U 1 1 5D44453A
P 9100 3600
AR Path="/5D44453A" Ref="#PWR?"  Part="1" 
AR Path="/5DFBD21F/5D44453A" Ref="#PWR054"  Part="1" 
F 0 "#PWR054" H 9100 3350 50  0001 C CNN
F 1 "GND" H 9105 3427 50  0000 C CNN
F 2 "" H 9100 3600 50  0001 C CNN
F 3 "" H 9100 3600 50  0001 C CNN
	1    9100 3600
	1    0    0    -1  
$EndComp
Wire Wire Line
	9100 3450 9100 3600
$Comp
L Regulator_Linear:MCP1700-3302E_SOT23 U8
U 1 1 5D48E893
P 2150 6500
F 0 "U8" H 2150 6742 50  0000 C CNN
F 1 "MCP1700-3302E_SOT23" H 2150 6651 50  0000 C CNN
F 2 "Package_TO_SOT_SMD:SOT-23" H 2150 6725 50  0001 C CNN
F 3 "http://ww1.microchip.com/downloads/en/DeviceDoc/20001826D.pdf" H 2150 6500 50  0001 C CNN
F 4 "Microchip" H 2150 6500 50  0001 C CNN "Hersteller"
F 5 "MCP1700T-3302E/TT" H 2150 6500 50  0001 C CNN "Herstellerteilenummer"
F 6 "0.342" H 2150 6500 50  0001 C CNN "Kosten_1"
F 7 "0.338" H 2150 6500 50  0001 C CNN "Kosten_10"
F 8 "0.259" H 2150 6500 50  0001 C CNN "Kosten_100"
F 9 "0.259" H 2150 6500 50  0001 C CNN "Kosten_1000"
F 10 "SMD" H 2150 6500 50  0001 C CNN "Technologie"
	1    2150 6500
	1    0    0    -1  
$EndComp
Wire Wire Line
	7750 4850 7750 3350
$Comp
L power:+5VA #PWR0112
U 1 1 5D4924EB
P 1500 6250
F 0 "#PWR0112" H 1500 6100 50  0001 C CNN
F 1 "+5VA" H 1515 6423 50  0000 C CNN
F 2 "" H 1500 6250 50  0001 C CNN
F 3 "" H 1500 6250 50  0001 C CNN
	1    1500 6250
	1    0    0    -1  
$EndComp
Wire Wire Line
	1850 6500 1500 6500
Wire Wire Line
	1500 6500 1500 6250
$Comp
L power:GND #PWR?
U 1 1 5D4941D7
P 2150 6950
AR Path="/5D4941D7" Ref="#PWR?"  Part="1" 
AR Path="/5DFBD21F/5D4941D7" Ref="#PWR0113"  Part="1" 
F 0 "#PWR0113" H 2150 6700 50  0001 C CNN
F 1 "GND" H 2155 6777 50  0000 C CNN
F 2 "" H 2150 6950 50  0001 C CNN
F 3 "" H 2150 6950 50  0001 C CNN
	1    2150 6950
	1    0    0    -1  
$EndComp
Wire Wire Line
	2150 6800 2150 6950
$Comp
L Device:C C10
U 1 1 5D4955FE
P 3050 6750
F 0 "C10" H 3165 6796 50  0000 L CNN
F 1 "0.1u" H 3165 6705 50  0000 L CNN
F 2 "Capacitor_SMD:C_0805_2012Metric" H 3088 6600 50  0001 C CNN
F 3 "~" H 3050 6750 50  0001 C CNN
F 4 "Wurth Elektronik " H 3050 6750 50  0001 C CNN "Hersteller"
F 5 "885012207098 " H 3050 6750 50  0001 C CNN "Herstellerteilenummer"
F 6 "710-885012207098 " H 3050 6750 50  0001 C CNN "Mouser"
F 7 "0.06" H 3050 6750 50  0001 C CNN "Kosten_1"
F 8 "0.06" H 3050 6750 50  0001 C CNN "Kosten_10"
F 9 "0.039" H 3050 6750 50  0001 C CNN "Kosten_100"
F 10 "SMD" H 3050 6750 50  0001 C CNN "Technologie"
	1    3050 6750
	1    0    0    -1  
$EndComp
Wire Wire Line
	2450 6500 2650 6500
Wire Wire Line
	3050 6500 3050 6600
$Comp
L power:GND #PWR?
U 1 1 5D496EFD
P 3050 6950
AR Path="/5D496EFD" Ref="#PWR?"  Part="1" 
AR Path="/5DFBD21F/5D496EFD" Ref="#PWR0114"  Part="1" 
F 0 "#PWR0114" H 3050 6700 50  0001 C CNN
F 1 "GND" H 3055 6777 50  0000 C CNN
F 2 "" H 3050 6950 50  0001 C CNN
F 3 "" H 3050 6950 50  0001 C CNN
	1    3050 6950
	1    0    0    -1  
$EndComp
Wire Wire Line
	3050 6900 3050 6950
Wire Wire Line
	2500 2850 2850 2850
Wire Wire Line
	2500 3050 2650 3050
$Comp
L Connector:TestPoint TP13
U 1 1 5D4DB27A
P 2850 2500
F 0 "TP13" H 2908 2618 50  0000 L CNN
F 1 "TestPoint" H 2908 2527 50  0000 L CNN
F 2 "TestPoint:TestPoint_Pad_D1.5mm" H 3050 2500 50  0001 C CNN
F 3 "~" H 3050 2500 50  0001 C CNN
	1    2850 2500
	1    0    0    -1  
$EndComp
Wire Wire Line
	2850 2850 2850 2500
Connection ~ 2850 2850
Wire Wire Line
	2850 2850 3000 2850
Wire Wire Line
	6400 3050 7100 3050
Wire Notes Line
	1250 5750 3750 5750
Wire Notes Line
	3750 5750 3750 7300
Wire Notes Line
	3750 7300 1250 7300
Wire Notes Line
	1250 7300 1250 5750
Text Notes 1300 5850 0    50   ~ 0
3.3 V supply
$Comp
L Device:C C14
U 1 1 5D41FB65
P 2650 6750
F 0 "C14" H 2765 6796 50  0000 L CNN
F 1 "4.7u" H 2765 6705 50  0000 L CNN
F 2 "Capacitor_SMD:C_0805_2012Metric" H 2688 6600 50  0001 C CNN
F 3 "~" H 2650 6750 50  0001 C CNN
F 4 "Ceramic" H 2650 6750 50  0001 C CNN "Type"
F 5 "Walsin" H 2650 6750 50  0001 C CNN "Hersteller"
F 6 "0805X475M250CT" H 2650 6750 50  0001 C CNN "Herstellerteilenummer"
F 7 "0.108" H 2650 6750 50  0001 C CNN "Kosten_1"
F 8 "0.108" H 2650 6750 50  0001 C CNN "Kosten_10"
F 9 "0.099" H 2650 6750 50  0001 C CNN "Kosten_100"
F 10 "0.077" H 2650 6750 50  0001 C CNN "Kosten_1000"
F 11 "SMD" H 2650 6750 50  0001 C CNN "Technologie"
	1    2650 6750
	1    0    0    -1  
$EndComp
Wire Wire Line
	2650 6500 2650 6600
$Comp
L power:GND #PWR?
U 1 1 5D41FB6C
P 2650 6950
AR Path="/5D41FB6C" Ref="#PWR?"  Part="1" 
AR Path="/5DFBD21F/5D41FB6C" Ref="#PWR0115"  Part="1" 
F 0 "#PWR0115" H 2650 6700 50  0001 C CNN
F 1 "GND" H 2655 6777 50  0000 C CNN
F 2 "" H 2650 6950 50  0001 C CNN
F 3 "" H 2650 6950 50  0001 C CNN
	1    2650 6950
	1    0    0    -1  
$EndComp
Wire Wire Line
	2650 6900 2650 6950
Connection ~ 2650 6500
Wire Wire Line
	3050 6500 2800 6500
Wire Wire Line
	2650 6500 2800 6500
Wire Wire Line
	3300 6500 3300 6250
$Comp
L power:+3.3V #PWR0121
U 1 1 5D42C420
P 3300 6250
F 0 "#PWR0121" H 3300 6100 50  0001 C CNN
F 1 "+3.3V" H 3315 6423 50  0000 C CNN
F 2 "" H 3300 6250 50  0001 C CNN
F 3 "" H 3300 6250 50  0001 C CNN
	1    3300 6250
	1    0    0    -1  
$EndComp
Wire Wire Line
	2800 6300 2800 6500
$Comp
L Connector:TestPoint TP12
U 1 1 5D4BE0AD
P 2800 6300
F 0 "TP12" H 2858 6418 50  0000 L CNN
F 1 "TestPoint" H 2858 6327 50  0000 L CNN
F 2 "TestPoint:TestPoint_Pad_D1.5mm" H 3000 6300 50  0001 C CNN
F 3 "~" H 3000 6300 50  0001 C CNN
	1    2800 6300
	1    0    0    -1  
$EndComp
Connection ~ 2800 6500
Wire Wire Line
	3050 6500 3300 6500
Connection ~ 3050 6500
$Comp
L Connector:TestPoint TP20
U 1 1 5D55ABC7
P 5700 2500
F 0 "TP20" H 5758 2618 50  0000 L CNN
F 1 "TestPoint" H 5758 2527 50  0000 L CNN
F 2 "TestPoint:TestPoint_Pad_D1.5mm" H 5900 2500 50  0001 C CNN
F 3 "~" H 5900 2500 50  0001 C CNN
	1    5700 2500
	1    0    0    -1  
$EndComp
Wire Wire Line
	5700 3050 5700 2500
$Comp
L Connector:TestPoint TP18
U 1 1 5D562069
P 2550 2500
F 0 "TP18" H 2608 2618 50  0000 L CNN
F 1 "TestPoint" H 2608 2527 50  0000 L CNN
F 2 "TestPoint:TestPoint_Pad_D1.5mm" H 2750 2500 50  0001 C CNN
F 3 "~" H 2750 2500 50  0001 C CNN
	1    2550 2500
	1    0    0    -1  
$EndComp
Wire Wire Line
	2650 3050 2650 2650
Wire Wire Line
	2650 2650 2550 2650
Wire Wire Line
	2550 2650 2550 2500
Connection ~ 2650 3050
Wire Wire Line
	2650 3050 3400 3050
$Comp
L Connector:TestPoint TP19
U 1 1 5D5671C9
P 4000 4300
F 0 "TP19" H 4058 4418 50  0000 L CNN
F 1 "TestPoint" H 4058 4327 50  0000 L CNN
F 2 "TestPoint:TestPoint_Pad_D1.5mm" H 4200 4300 50  0001 C CNN
F 3 "~" H 4200 4300 50  0001 C CNN
	1    4000 4300
	1    0    0    -1  
$EndComp
Wire Wire Line
	4000 4850 4000 4300
Connection ~ 4000 4850
Wire Wire Line
	4000 4850 7750 4850
$EndSCHEMATC
