EESchema Schematic File Version 4
EELAYER 30 0
EELAYER END
$Descr A4 11693 8268
encoding utf-8
Sheet 1 5
Title "Scaper's Pi"
Date ""
Rev ""
Comp ""
Comment1 ""
Comment2 ""
Comment3 ""
Comment4 ""
$EndDescr
$Comp
L Connector:Raspberry_Pi_2_3 J2
U 1 1 5D166920
P 5550 4250
F 0 "J2" H 5000 3450 50  0000 C CNN
F 1 "Raspberry_Pi_2_3" H 5250 3350 50  0000 C CNN
F 2 "Module:Raspberry_Pi_Zero_Socketed_THT_FaceDown_MountingHoles" H 5550 4250 50  0001 C CNN
F 3 "https://www.raspberrypi.org/documentation/hardware/raspberrypi/schematics/rpi_SCH_3bplus_1p0_reduced.pdf" H 5550 4250 50  0001 C CNN
F 4 "15" H 5550 4250 50  0001 C CNN "Kosten_1"
F 5 "15" H 5550 4250 50  0001 C CNN "Kosten_10"
F 6 "15" H 5550 4250 50  0001 C CNN "Kosten_100"
F 7 "15" H 5550 4250 50  0001 C CNN "Kosten_1000"
F 8 "THT" H 5550 4250 50  0001 C CNN "Technologie"
	1    5550 4250
	1    0    0    -1  
$EndComp
$Comp
L power:+5V #PWR015
U 1 1 5D17FCEC
P 5450 2750
F 0 "#PWR015" H 5450 2600 50  0001 C CNN
F 1 "+5V" H 5465 2923 50  0000 C CNN
F 2 "" H 5450 2750 50  0001 C CNN
F 3 "" H 5450 2750 50  0001 C CNN
	1    5450 2750
	1    0    0    -1  
$EndComp
$Comp
L power:GND #PWR017
U 1 1 5D1823A7
P 5150 5750
F 0 "#PWR017" H 5150 5500 50  0001 C CNN
F 1 "GND" H 5155 5577 50  0000 C CNN
F 2 "" H 5150 5750 50  0001 C CNN
F 3 "" H 5150 5750 50  0001 C CNN
	1    5150 5750
	1    0    0    -1  
$EndComp
Text GLabel 6600 3950 2    50   Output ~ 0
1WIRE
Wire Wire Line
	6600 3950 6350 3950
$Comp
L Transistor_Array:ULN2003 U2
U 1 1 5D18F618
P 8300 4550
F 0 "U2" H 8300 5217 50  0000 C CNN
F 1 "ULN2003" H 8300 5126 50  0000 C CNN
F 2 "Package_SO:SOIC-16_3.9x9.9mm_P1.27mm" H 8350 4000 50  0001 L CNN
F 3 "http://www.ti.com/lit/ds/symlink/uln2003a.pdf" H 8400 4350 50  0001 C CNN
F 4 "ON Semiconductor" H 8300 4550 50  0001 C CNN "Hersteller"
F 5 "ULN2003ADR2G" H 8300 4550 50  0001 C CNN "Herstellerteilenummer"
F 6 "0.513" H 8300 4550 50  0001 C CNN "Kosten_1"
F 7 "0.427" H 8300 4550 50  0001 C CNN "Kosten_10"
F 8 "0.26" H 8300 4550 50  0001 C CNN "Kosten_100"
F 9 "0.201" H 8300 4550 50  0001 C CNN "Kosten_1000"
F 10 "SMD" H 8300 4550 50  0001 C CNN "Technologie"
	1    8300 4550
	1    0    0    -1  
$EndComp
$Comp
L power:+9V #PWR024
U 1 1 5D1C2D01
P 8800 4050
F 0 "#PWR024" H 8800 3900 50  0001 C CNN
F 1 "+9V" H 8815 4223 50  0000 C CNN
F 2 "" H 8800 4050 50  0001 C CNN
F 3 "" H 8800 4050 50  0001 C CNN
	1    8800 4050
	1    0    0    -1  
$EndComp
Wire Wire Line
	8700 4150 8800 4150
Wire Wire Line
	8800 4150 8800 4050
Wire Wire Line
	9950 4450 8700 4450
Wire Wire Line
	8700 4550 9950 4550
Wire Wire Line
	9950 4650 8700 4650
$Comp
L power:+9V #PWR025
U 1 1 5D1D9434
P 9200 4950
F 0 "#PWR025" H 9200 4800 50  0001 C CNN
F 1 "+9V" H 9215 5123 50  0000 C CNN
F 2 "" H 9200 4950 50  0001 C CNN
F 3 "" H 9200 4950 50  0001 C CNN
	1    9200 4950
	0    -1   -1   0   
$EndComp
$Comp
L power:GND #PWR023
U 1 1 5D1DE684
P 8300 5250
F 0 "#PWR023" H 8300 5000 50  0001 C CNN
F 1 "GND" H 8305 5077 50  0000 C CNN
F 2 "" H 8300 5250 50  0001 C CNN
F 3 "" H 8300 5250 50  0001 C CNN
	1    8300 5250
	1    0    0    -1  
$EndComp
Wire Wire Line
	8300 5150 8300 5250
$Comp
L Connector:RJ12 J3
U 1 1 5D1A41EC
P 10350 4650
F 0 "J3" H 10020 4654 50  0000 R CNN
F 1 "RJ12" H 10020 4745 50  0000 R CNN
F 2 "Connector_RJ:RJ12_Amphenol_54601" V 10350 4675 50  0001 C CNN
F 3 "~" V 10350 4675 50  0001 C CNN
F 4 "Amphenol FCI" H 10350 4650 50  0001 C CNN "Hersteller"
F 5 "54601-906001WPLF" H 10350 4650 50  0001 C CNN "Herstellerteilenummer"
F 6 "THT" H 10350 4650 50  0001 C CNN "Technologie"
	1    10350 4650
	-1   0    0    -1  
$EndComp
$Comp
L Mechanical:MountingHole H1
U 1 1 5D410D01
P 650 7200
F 0 "H1" H 750 7246 50  0000 L CNN
F 1 "MountingHole" H 750 7155 50  0000 L CNN
F 2 "MountingHole:MountingHole_3.2mm_M3" H 650 7200 50  0001 C CNN
F 3 "~" H 650 7200 50  0001 C CNN
	1    650  7200
	1    0    0    -1  
$EndComp
$Comp
L Mechanical:MountingHole H2
U 1 1 5D411B29
P 650 7350
F 0 "H2" H 750 7396 50  0000 L CNN
F 1 "MountingHole" H 750 7305 50  0000 L CNN
F 2 "MountingHole:MountingHole_3.2mm_M3" H 650 7350 50  0001 C CNN
F 3 "~" H 650 7350 50  0001 C CNN
	1    650  7350
	1    0    0    -1  
$EndComp
$Comp
L Mechanical:MountingHole H3
U 1 1 5D411CBB
P 650 7500
F 0 "H3" H 750 7546 50  0000 L CNN
F 1 "MountingHole" H 750 7455 50  0000 L CNN
F 2 "MountingHole:MountingHole_3.2mm_M3" H 650 7500 50  0001 C CNN
F 3 "~" H 650 7500 50  0001 C CNN
	1    650  7500
	1    0    0    -1  
$EndComp
$Comp
L Mechanical:MountingHole H4
U 1 1 5D411E9C
P 650 7650
F 0 "H4" H 750 7696 50  0000 L CNN
F 1 "MountingHole" H 750 7605 50  0000 L CNN
F 2 "MountingHole:MountingHole_3.2mm_M3" H 650 7650 50  0001 C CNN
F 3 "~" H 650 7650 50  0001 C CNN
	1    650  7650
	1    0    0    -1  
$EndComp
NoConn ~ 6350 4150
NoConn ~ 6350 3450
NoConn ~ 6350 3350
NoConn ~ 6350 5050
NoConn ~ 7900 4850
NoConn ~ 7900 4950
NoConn ~ 8700 4950
NoConn ~ 8700 4850
Wire Wire Line
	8700 4750 9950 4750
$Sheet
S 5750 850  850  550 
U 5D951669
F0 "LED_Driver" 50
F1 "LED_Driver.sch" 50
F2 "SCL" I L 5750 1100 50 
F3 "SDA" I L 5750 1200 50 
$EndSheet
$Comp
L Logic_LevelTranslator:TXS0108EPW U1
U 1 1 5DAFACB3
P 3150 3700
F 0 "U1" V 3150 3650 50  0000 C CNN
F 1 "TXS0108EPW" V 3050 3700 50  0000 C CNN
F 2 "Package_SO:TSSOP-20_4.4x6.5mm_P0.65mm" H 3150 2950 50  0001 C CNN
F 3 "www.ti.com/lit/ds/symlink/txs0108e.pdf" H 3150 3600 50  0001 C CNN
F 4 "Texas Instruments" H 3150 3700 50  0001 C CNN "Hersteller"
F 5 "TXS0108EPWR" H 3150 3700 50  0001 C CNN "Herstellerteilenummer"
F 6 "1.45" H 3150 3700 50  0001 C CNN "Kosten_1"
F 7 "1.23" H 3150 3700 50  0001 C CNN "Kosten_10"
F 8 "0.99" H 3150 3700 50  0001 C CNN "Kosten_100"
F 9 "0.713" H 3150 3700 50  0001 C CNN "Kosten_1000"
F 10 "SMD" H 3150 3700 50  0001 C CNN "Technologie"
	1    3150 3700
	-1   0    0    -1  
$EndComp
$Comp
L power:+3.3V #PWR011
U 1 1 5DB0CA7E
P 3250 3000
F 0 "#PWR011" H 3250 2850 50  0001 C CNN
F 1 "+3.3V" H 3265 3173 50  0000 C CNN
F 2 "" H 3250 3000 50  0001 C CNN
F 3 "" H 3250 3000 50  0001 C CNN
	1    3250 3000
	1    0    0    -1  
$EndComp
$Comp
L power:+5V #PWR09
U 1 1 5DB0D2B9
P 3050 3000
F 0 "#PWR09" H 3050 2850 50  0001 C CNN
F 1 "+5V" H 3065 3173 50  0000 C CNN
F 2 "" H 3050 3000 50  0001 C CNN
F 3 "" H 3050 3000 50  0001 C CNN
	1    3050 3000
	1    0    0    -1  
$EndComp
$Comp
L power:GND #PWR010
U 1 1 5DB0D8F1
P 3150 4400
F 0 "#PWR010" H 3150 4150 50  0001 C CNN
F 1 "GND" H 3155 4227 50  0000 C CNN
F 2 "" H 3150 4400 50  0001 C CNN
F 3 "" H 3150 4400 50  0001 C CNN
	1    3150 4400
	1    0    0    -1  
$EndComp
$Comp
L power:+3.3V #PWR013
U 1 1 5DB781A4
P 3600 3150
F 0 "#PWR013" H 3600 3000 50  0001 C CNN
F 1 "+3.3V" H 3615 3323 50  0000 C CNN
F 2 "" H 3600 3150 50  0001 C CNN
F 3 "" H 3600 3150 50  0001 C CNN
	1    3600 3150
	1    0    0    -1  
$EndComp
$Comp
L Connector_Generic:Conn_01x08 J1
U 1 1 5DB80FF6
P 1900 3600
F 0 "J1" H 1818 4117 50  0000 C CNN
F 1 "Conn_01x08" H 1818 4026 50  0000 C CNN
F 2 "SamacSys_Parts:1821300" H 1900 3600 50  0001 C CNN
F 3 "~" H 1900 3600 50  0001 C CNN
F 4 "Phoenix Contact" H 1900 3600 50  0001 C CNN "Hersteller"
F 5 "1821300" H 1900 3600 50  0001 C CNN "Herstellerteilenummer"
F 6 "THT" H 1900 3600 50  0001 C CNN "Technologie"
	1    1900 3600
	-1   0    0    -1  
$EndComp
$Comp
L Device:C C1
U 1 1 5DBD2BF7
P 5050 2500
F 0 "C1" H 5165 2546 50  0000 L CNN
F 1 "4.7u" H 5165 2455 50  0000 L CNN
F 2 "Capacitor_SMD:C_0805_2012Metric" H 5088 2350 50  0001 C CNN
F 3 "~" H 5050 2500 50  0001 C CNN
F 4 "0805X475M250CT" H 5050 2500 50  0001 C CNN "Herstellerteilenummer"
F 5 "Walsin" H 5050 2500 50  0001 C CNN "Hersteller"
F 6 "0.108" H 5050 2500 50  0001 C CNN "Kosten_1"
F 7 "0.108" H 5050 2500 50  0001 C CNN "Kosten_10"
F 8 "0.099" H 5050 2500 50  0001 C CNN "Kosten_100"
F 9 "0.077" H 5050 2500 50  0001 C CNN "Kosten_1000"
F 10 "SMD" H 5050 2500 50  0001 C CNN "Technologie"
	1    5050 2500
	1    0    0    -1  
$EndComp
$Comp
L power:+5V #PWR01
U 1 1 5DBD3C73
P 5050 2350
F 0 "#PWR01" H 5050 2200 50  0001 C CNN
F 1 "+5V" H 5065 2523 50  0000 C CNN
F 2 "" H 5050 2350 50  0001 C CNN
F 3 "" H 5050 2350 50  0001 C CNN
	1    5050 2350
	1    0    0    -1  
$EndComp
$Comp
L power:GND #PWR02
U 1 1 5DBD4743
P 5050 2650
F 0 "#PWR02" H 5050 2400 50  0001 C CNN
F 1 "GND" H 5055 2477 50  0000 C CNN
F 2 "" H 5050 2650 50  0001 C CNN
F 3 "" H 5050 2650 50  0001 C CNN
	1    5050 2650
	1    0    0    -1  
$EndComp
NoConn ~ 4750 4850
NoConn ~ 4750 4950
Wire Wire Line
	9950 4850 9300 4850
Wire Wire Line
	9300 4850 9300 4950
Wire Wire Line
	9300 4950 9200 4950
$Comp
L power:+5V #PWR07
U 1 1 5DD12511
P 2250 3150
F 0 "#PWR07" H 2250 3000 50  0001 C CNN
F 1 "+5V" H 2265 3323 50  0000 C CNN
F 2 "" H 2250 3150 50  0001 C CNN
F 3 "" H 2250 3150 50  0001 C CNN
	1    2250 3150
	1    0    0    -1  
$EndComp
Wire Wire Line
	2100 3300 2250 3300
Wire Wire Line
	2250 3300 2250 3150
$Comp
L power:GND #PWR08
U 1 1 5DD1BDA0
P 2250 4100
F 0 "#PWR08" H 2250 3850 50  0001 C CNN
F 1 "GND" H 2255 3927 50  0000 C CNN
F 2 "" H 2250 4100 50  0001 C CNN
F 3 "" H 2250 4100 50  0001 C CNN
	1    2250 4100
	1    0    0    -1  
$EndComp
Wire Wire Line
	2250 4100 2250 4000
Wire Wire Line
	2250 4000 2100 4000
Wire Wire Line
	2750 3400 2100 3400
Wire Wire Line
	2100 3500 2750 3500
Wire Wire Line
	2750 3600 2100 3600
Wire Wire Line
	2100 3700 2750 3700
Wire Wire Line
	2100 3800 2750 3800
Wire Wire Line
	2750 3900 2100 3900
$Sheet
S 750  650  850  600 
U 5DFBD21F
F0 "PowerSupply" 50
F1 "PowerSupply.sch" 50
F2 "EN" I L 750 1000 50 
$EndSheet
NoConn ~ 4750 4750
NoConn ~ 4750 4650
$Comp
L Connector:RJ10 J13
U 1 1 5E10D940
P 8050 1050
F 0 "J13" H 7720 1054 50  0000 R CNN
F 1 "RJ10" H 7720 1145 50  0000 R CNN
F 2 "MyFootprints:RJ10" V 8050 1100 50  0001 C CNN
F 3 "~" V 8050 1100 50  0001 C CNN
F 4 "Amphenol Commercial Products" H 8050 1050 50  0001 C CNN "Hersteller"
F 5 "RJE0164002" H 8050 1050 50  0001 C CNN "Herstellerteilenummer"
F 6 "THT" H 8050 1050 50  0001 C CNN "Technologie"
	1    8050 1050
	-1   0    0    1   
$EndComp
$Comp
L power:GND #PWR0101
U 1 1 5E11CDB1
P 7550 1300
F 0 "#PWR0101" H 7550 1050 50  0001 C CNN
F 1 "GND" H 7555 1127 50  0000 C CNN
F 2 "" H 7550 1300 50  0001 C CNN
F 3 "" H 7550 1300 50  0001 C CNN
	1    7550 1300
	-1   0    0    -1  
$EndComp
Wire Wire Line
	7650 1250 7550 1250
Wire Wire Line
	7550 1250 7550 1300
Wire Wire Line
	7650 950  7550 950 
Wire Wire Line
	7550 950  7550 900 
$Comp
L power:+5V #PWR0102
U 1 1 5E145244
P 7550 900
F 0 "#PWR0102" H 7550 750 50  0001 C CNN
F 1 "+5V" H 7565 1073 50  0000 C CNN
F 2 "" H 7550 900 50  0001 C CNN
F 3 "" H 7550 900 50  0001 C CNN
	1    7550 900 
	-1   0    0    -1  
$EndComp
Wire Wire Line
	2750 4000 2450 4000
Wire Wire Line
	2500 4100 2750 4100
Wire Wire Line
	3550 3300 3600 3300
Wire Wire Line
	3600 3300 3600 3150
Text GLabel 3750 4000 2    50   BiDi ~ 0
SDA
Text GLabel 3750 4100 2    50   Input ~ 0
SCL
Wire Wire Line
	3750 4000 3550 4000
Wire Wire Line
	3550 4100 3750 4100
Text GLabel 7450 3650 2    50   BiDi ~ 0
SDA
Text GLabel 7450 3750 2    50   Output ~ 0
SCL
Text GLabel 1050 5750 0    50   BiDi ~ 0
SDA_5V
Text GLabel 1050 5850 0    50   Output ~ 0
SCL_5V
Text GLabel 7400 1050 0    50   BiDi ~ 0
SDA_5V
Text GLabel 7400 1150 0    50   Input ~ 0
SCL_5V
Wire Wire Line
	6350 3650 6750 3650
Wire Wire Line
	6350 3750 7000 3750
$Sheet
S 2800 700  950  550 
U 5D2D3B23
F0 "SystemManagement" 50
F1 "SystemManagement.sch" 50
F2 "SYS_EN" O R 3750 950 50 
F3 "SDA" B L 2800 900 50 
F4 "SCL" I L 2800 1000 50 
F5 "WDG_Trigger" I L 2800 1100 50 
$EndSheet
Wire Wire Line
	3750 950  3900 950 
Wire Wire Line
	3900 950  3900 1500
Wire Wire Line
	600  1500 600  1000
Wire Wire Line
	600  1000 750  1000
Wire Wire Line
	600  1500 3900 1500
Text GLabel 2550 900  0    50   Input ~ 0
SDA_5V
Text GLabel 2550 1000 0    50   Input ~ 0
SCL_5V
Wire Wire Line
	2550 1000 2800 1000
Wire Wire Line
	2800 900  2550 900 
Wire Wire Line
	4750 3350 4250 3350
Wire Wire Line
	4250 3350 4250 3400
Wire Wire Line
	3550 3400 4250 3400
Wire Wire Line
	4300 3500 4300 3450
Wire Wire Line
	4300 3450 4750 3450
Wire Wire Line
	3550 3500 4300 3500
Wire Wire Line
	4750 3650 4300 3650
Wire Wire Line
	4300 3650 4300 3600
Wire Wire Line
	3550 3600 4300 3600
Wire Wire Line
	4300 3700 4300 3750
Wire Wire Line
	4300 3750 4750 3750
Wire Wire Line
	3550 3700 4300 3700
Wire Wire Line
	4300 3800 4300 3850
Wire Wire Line
	4300 3850 4750 3850
Wire Wire Line
	3550 3800 4300 3800
Wire Wire Line
	4250 3900 4250 4050
Wire Wire Line
	4250 4050 4750 4050
Wire Wire Line
	3550 3900 4250 3900
NoConn ~ 4750 4250
NoConn ~ 4750 4150
NoConn ~ 6350 4950
$Comp
L Jumper:Jumper_2_Open JP1
U 1 1 5D521626
P 9350 4350
F 0 "JP1" H 9350 4585 50  0000 C CNN
F 1 "Jumper_2_Open" H 9350 4494 50  0000 C CNN
F 2 "Connector_PinHeader_2.54mm:PinHeader_1x02_P2.54mm_Vertical" H 9350 4350 50  0001 C CNN
F 3 "~" H 9350 4350 50  0001 C CNN
	1    9350 4350
	1    0    0    -1  
$EndComp
Wire Wire Line
	9550 4350 9950 4350
Wire Wire Line
	8700 4350 9150 4350
Text Notes 9050 4000 0    50   ~ 0
Leave jumper open to connect to \nJecod Slave Dosing Pump DP-3S. \nClose it to connect your own device\nand have 1 more channel.
Text GLabel 5500 1200 0    50   BiDi ~ 0
SDA_5V
Text GLabel 5500 1100 0    50   Input ~ 0
SCL_5V
$Comp
L Device:R R5
U 1 1 5D57D4BA
P 6750 3200
F 0 "R5" H 6820 3246 50  0000 L CNN
F 1 "10k" H 6820 3155 50  0000 L CNN
F 2 "Resistor_SMD:R_0805_2012Metric" V 6680 3200 50  0001 C CNN
F 3 "~" H 6750 3200 50  0001 C CNN
F 4 "0.09" H 6750 3200 50  0001 C CNN "Kosten_1"
F 5 "0.052" H 6750 3200 50  0001 C CNN "Kosten_10"
F 6 "0.021" H 6750 3200 50  0001 C CNN "Kosten_100"
F 7 "0.0007" H 6750 3200 50  0001 C CNN "Kosten_1000"
F 8 "SMD" H 6750 3200 50  0001 C CNN "Technologie"
F 9 "Vishay / Dale" H 6750 3200 50  0001 C CNN "Hersteller"
F 10 "CRCW080510K0FKEAC" H 6750 3200 50  0001 C CNN "Herstellerteilenummer"
	1    6750 3200
	1    0    0    -1  
$EndComp
$Comp
L Device:R R6
U 1 1 5D57D4C0
P 7000 3200
F 0 "R6" H 7070 3246 50  0000 L CNN
F 1 "10k" H 7070 3155 50  0000 L CNN
F 2 "Resistor_SMD:R_0805_2012Metric" V 6930 3200 50  0001 C CNN
F 3 "~" H 7000 3200 50  0001 C CNN
F 4 "0.09" H 7000 3200 50  0001 C CNN "Kosten_1"
F 5 "0.052" H 7000 3200 50  0001 C CNN "Kosten_10"
F 6 "0.021" H 7000 3200 50  0001 C CNN "Kosten_100"
F 7 "0.0007" H 7000 3200 50  0001 C CNN "Kosten_1000"
F 8 "SMD" H 7000 3200 50  0001 C CNN "Technologie"
F 9 "Vishay / Dale" H 7000 3200 50  0001 C CNN "Hersteller"
F 10 "CRCW080510K0FKEAC" H 7000 3200 50  0001 C CNN "Herstellerteilenummer"
	1    7000 3200
	1    0    0    -1  
$EndComp
Wire Wire Line
	7000 3050 7000 2950
Wire Wire Line
	6750 2950 6750 3050
Wire Wire Line
	7000 3350 7000 3750
Wire Wire Line
	6750 3350 6750 3650
$Comp
L power:+3.3V #PWR0117
U 1 1 5D59E649
P 6750 2950
F 0 "#PWR0117" H 6750 2800 50  0001 C CNN
F 1 "+3.3V" H 6765 3123 50  0000 C CNN
F 2 "" H 6750 2950 50  0001 C CNN
F 3 "" H 6750 2950 50  0001 C CNN
	1    6750 2950
	1    0    0    -1  
$EndComp
$Comp
L power:+3.3V #PWR0118
U 1 1 5D59EC27
P 7000 2950
F 0 "#PWR0118" H 7000 2800 50  0001 C CNN
F 1 "+3.3V" H 7015 3123 50  0000 C CNN
F 2 "" H 7000 2950 50  0001 C CNN
F 3 "" H 7000 2950 50  0001 C CNN
	1    7000 2950
	1    0    0    -1  
$EndComp
Text GLabel 4300 5050 0    50   Output ~ 0
WDG_Trigger
Text GLabel 2550 1100 0    50   Input ~ 0
WDG_Trigger
Wire Wire Line
	2550 1100 2800 1100
$Sheet
S 9750 800  800  550 
U 5D32BF15
F0 "1wire" 50
F1 "1wire.sch" 50
F2 "1WIRE" I L 9750 1050 50 
$EndSheet
Text GLabel 9550 1050 0    50   Input ~ 0
1WIRE
Wire Wire Line
	9550 1050 9750 1050
Wire Wire Line
	5500 1100 5750 1100
Wire Wire Line
	5500 1200 5750 1200
$Comp
L Device:R R7
U 1 1 5D356B88
P 1900 5450
F 0 "R7" H 1970 5496 50  0000 L CNN
F 1 "10k" H 1970 5405 50  0000 L CNN
F 2 "Resistor_SMD:R_0805_2012Metric" V 1830 5450 50  0001 C CNN
F 3 "~" H 1900 5450 50  0001 C CNN
F 4 "0.09" H 1900 5450 50  0001 C CNN "Kosten_1"
F 5 "0.052" H 1900 5450 50  0001 C CNN "Kosten_10"
F 6 "0.021" H 1900 5450 50  0001 C CNN "Kosten_100"
F 7 "0.0007" H 1900 5450 50  0001 C CNN "Kosten_1000"
F 8 "SMD" H 1900 5450 50  0001 C CNN "Technologie"
F 9 "Vishay / Dale" H 1900 5450 50  0001 C CNN "Hersteller"
F 10 "CRCW080510K0FKEAC" H 1900 5450 50  0001 C CNN "Herstellerteilenummer"
	1    1900 5450
	1    0    0    -1  
$EndComp
$Comp
L Device:R R8
U 1 1 5D356B8E
P 2150 5450
F 0 "R8" H 2220 5496 50  0000 L CNN
F 1 "10k" H 2220 5405 50  0000 L CNN
F 2 "Resistor_SMD:R_0805_2012Metric" V 2080 5450 50  0001 C CNN
F 3 "~" H 2150 5450 50  0001 C CNN
F 4 "0.09" H 2150 5450 50  0001 C CNN "Kosten_1"
F 5 "0.052" H 2150 5450 50  0001 C CNN "Kosten_10"
F 6 "0.021" H 2150 5450 50  0001 C CNN "Kosten_100"
F 7 "0.0007" H 2150 5450 50  0001 C CNN "Kosten_1000"
F 8 "SMD" H 2150 5450 50  0001 C CNN "Technologie"
F 9 "Vishay / Dale" H 2150 5450 50  0001 C CNN "Hersteller"
F 10 "CRCW080510K0FKEAC" H 2150 5450 50  0001 C CNN "Herstellerteilenummer"
	1    2150 5450
	1    0    0    -1  
$EndComp
Wire Wire Line
	2150 5300 2150 5200
Wire Wire Line
	1900 5200 1900 5300
Wire Wire Line
	1900 5750 1900 5600
Wire Wire Line
	2150 5850 2150 5600
$Comp
L power:+5V #PWR03
U 1 1 5D356B98
P 1900 5200
F 0 "#PWR03" H 1900 5050 50  0001 C CNN
F 1 "+5V" H 1915 5373 50  0000 C CNN
F 2 "" H 1900 5200 50  0001 C CNN
F 3 "" H 1900 5200 50  0001 C CNN
	1    1900 5200
	1    0    0    -1  
$EndComp
$Comp
L power:+5V #PWR016
U 1 1 5D356B9E
P 2150 5200
F 0 "#PWR016" H 2150 5050 50  0001 C CNN
F 1 "+5V" H 2165 5373 50  0000 C CNN
F 2 "" H 2150 5200 50  0001 C CNN
F 3 "" H 2150 5200 50  0001 C CNN
	1    2150 5200
	1    0    0    -1  
$EndComp
Connection ~ 1900 5750
Wire Wire Line
	1900 5750 2450 5750
Connection ~ 2150 5850
Wire Wire Line
	2150 5850 2500 5850
Wire Wire Line
	7400 1050 7650 1050
Wire Wire Line
	7400 1150 7650 1150
Wire Notes Line
	11050 3350 11050 5600
Wire Notes Line
	7750 5600 7750 3350
Text Notes 7800 3450 0    50   ~ 0
Dosing pumps
Text Notes 1600 2100 0    50   ~ 0
Buffered 5V IOs
Wire Notes Line
	1550 1950 4150 1950
Wire Notes Line
	4150 4650 1550 4650
Wire Wire Line
	2450 4000 2450 5750
Wire Wire Line
	2500 4100 2500 5850
Wire Wire Line
	6350 4350 7900 4350
Wire Wire Line
	6350 4450 7900 4450
Wire Wire Line
	6350 4550 7900 4550
Wire Wire Line
	6350 4650 7900 4650
Wire Wire Line
	6350 4750 7900 4750
$Comp
L Connector:TestPoint TP?
U 1 1 5D438180
P 1200 5350
AR Path="/5D951669/5D438180" Ref="TP?"  Part="1" 
AR Path="/5D438180" Ref="TP14"  Part="1" 
F 0 "TP14" H 1258 5468 50  0000 L CNN
F 1 "TestPoint" H 1258 5377 50  0000 L CNN
F 2 "TestPoint:TestPoint_Pad_D1.5mm" H 1400 5350 50  0001 C CNN
F 3 "~" H 1400 5350 50  0001 C CNN
	1    1200 5350
	1    0    0    -1  
$EndComp
$Comp
L Connector:TestPoint TP?
U 1 1 5D43BEC3
P 1450 5550
AR Path="/5D951669/5D43BEC3" Ref="TP?"  Part="1" 
AR Path="/5D43BEC3" Ref="TP15"  Part="1" 
F 0 "TP15" H 1508 5668 50  0000 L CNN
F 1 "TestPoint" H 1508 5577 50  0000 L CNN
F 2 "TestPoint:TestPoint_Pad_D1.5mm" H 1650 5550 50  0001 C CNN
F 3 "~" H 1650 5550 50  0001 C CNN
	1    1450 5550
	1    0    0    -1  
$EndComp
Wire Wire Line
	1050 5750 1200 5750
Wire Wire Line
	1200 5350 1200 5750
Connection ~ 1200 5750
Wire Wire Line
	1200 5750 1900 5750
Wire Wire Line
	1450 5550 1450 5850
Wire Wire Line
	1050 5850 1450 5850
Connection ~ 1450 5850
Wire Wire Line
	1450 5850 2150 5850
$Comp
L Connector:TestPoint TP?
U 1 1 5D451E8B
P 7250 3050
AR Path="/5D951669/5D451E8B" Ref="TP?"  Part="1" 
AR Path="/5D451E8B" Ref="TP16"  Part="1" 
F 0 "TP16" H 7308 3168 50  0000 L CNN
F 1 "TestPoint" H 7308 3077 50  0000 L CNN
F 2 "TestPoint:TestPoint_Pad_D1.5mm" H 7450 3050 50  0001 C CNN
F 3 "~" H 7450 3050 50  0001 C CNN
	1    7250 3050
	1    0    0    -1  
$EndComp
$Comp
L Connector:TestPoint TP?
U 1 1 5D4563D7
P 7350 3300
AR Path="/5D951669/5D4563D7" Ref="TP?"  Part="1" 
AR Path="/5D4563D7" Ref="TP17"  Part="1" 
F 0 "TP17" H 7408 3418 50  0000 L CNN
F 1 "TestPoint" H 7408 3327 50  0000 L CNN
F 2 "TestPoint:TestPoint_Pad_D1.5mm" H 7550 3300 50  0001 C CNN
F 3 "~" H 7550 3300 50  0001 C CNN
	1    7350 3300
	1    0    0    -1  
$EndComp
Wire Wire Line
	6750 3650 7250 3650
Connection ~ 6750 3650
Wire Wire Line
	7000 3750 7350 3750
Connection ~ 7000 3750
Wire Wire Line
	7250 3050 7250 3650
Connection ~ 7250 3650
Wire Wire Line
	7250 3650 7450 3650
Wire Wire Line
	7350 3300 7350 3750
Connection ~ 7350 3750
Wire Wire Line
	7350 3750 7450 3750
$Comp
L Device:C C11
U 1 1 5D3D8C0C
P 3400 2350
F 0 "C11" H 3515 2396 50  0000 L CNN
F 1 "0.1u" H 3515 2305 50  0000 L CNN
F 2 "Capacitor_SMD:C_0805_2012Metric" H 3438 2200 50  0001 C CNN
F 3 "~" H 3400 2350 50  0001 C CNN
F 4 "Wurth Elektronik " H 3400 2350 50  0001 C CNN "Hersteller"
F 5 "885012207098 " H 3400 2350 50  0001 C CNN "Herstellerteilenummer"
F 6 "710-885012207098 " H 3400 2350 50  0001 C CNN "Mouser"
F 7 "0.06" H 3400 2350 50  0001 C CNN "Kosten_1"
F 8 "0.06" H 3400 2350 50  0001 C CNN "Kosten_10"
F 9 "0.039" H 3400 2350 50  0001 C CNN "Kosten_100"
F 10 "SMD" H 3400 2350 50  0001 C CNN "Technologie"
	1    3400 2350
	1    0    0    -1  
$EndComp
$Comp
L power:+5V #PWR0103
U 1 1 5D3D8C12
P 3400 2200
F 0 "#PWR0103" H 3400 2050 50  0001 C CNN
F 1 "+5V" H 3415 2373 50  0000 C CNN
F 2 "" H 3400 2200 50  0001 C CNN
F 3 "" H 3400 2200 50  0001 C CNN
	1    3400 2200
	1    0    0    -1  
$EndComp
$Comp
L power:GND #PWR0104
U 1 1 5D3D8C18
P 3400 2500
F 0 "#PWR0104" H 3400 2250 50  0001 C CNN
F 1 "GND" H 3405 2327 50  0000 C CNN
F 2 "" H 3400 2500 50  0001 C CNN
F 3 "" H 3400 2500 50  0001 C CNN
	1    3400 2500
	1    0    0    -1  
$EndComp
$Comp
L Device:C C12
U 1 1 5D3DDA10
P 3800 2350
F 0 "C12" H 3915 2396 50  0000 L CNN
F 1 "0.1u" H 3915 2305 50  0000 L CNN
F 2 "Capacitor_SMD:C_0805_2012Metric" H 3838 2200 50  0001 C CNN
F 3 "~" H 3800 2350 50  0001 C CNN
F 4 "Wurth Elektronik " H 3800 2350 50  0001 C CNN "Hersteller"
F 5 "885012207098 " H 3800 2350 50  0001 C CNN "Herstellerteilenummer"
F 6 "710-885012207098 " H 3800 2350 50  0001 C CNN "Mouser"
F 7 "0.06" H 3800 2350 50  0001 C CNN "Kosten_1"
F 8 "0.06" H 3800 2350 50  0001 C CNN "Kosten_10"
F 9 "0.039" H 3800 2350 50  0001 C CNN "Kosten_100"
F 10 "SMD" H 3800 2350 50  0001 C CNN "Technologie"
	1    3800 2350
	1    0    0    -1  
$EndComp
$Comp
L power:GND #PWR0105
U 1 1 5D3DDA1C
P 3800 2500
F 0 "#PWR0105" H 3800 2250 50  0001 C CNN
F 1 "GND" H 3805 2327 50  0000 C CNN
F 2 "" H 3800 2500 50  0001 C CNN
F 3 "" H 3800 2500 50  0001 C CNN
	1    3800 2500
	1    0    0    -1  
$EndComp
$Comp
L power:+3.3V #PWR0106
U 1 1 5D3E21A5
P 3800 2200
F 0 "#PWR0106" H 3800 2050 50  0001 C CNN
F 1 "+3.3V" H 3815 2373 50  0000 C CNN
F 2 "" H 3800 2200 50  0001 C CNN
F 3 "" H 3800 2200 50  0001 C CNN
	1    3800 2200
	1    0    0    -1  
$EndComp
Wire Notes Line
	4150 1950 4150 4650
Wire Notes Line
	1550 1950 1550 4650
$Comp
L Device:C C2
U 1 1 5D40A326
P 10650 3750
F 0 "C2" H 10765 3796 50  0000 L CNN
F 1 "0.1u" H 10765 3705 50  0000 L CNN
F 2 "Capacitor_SMD:C_0805_2012Metric" H 10688 3600 50  0001 C CNN
F 3 "~" H 10650 3750 50  0001 C CNN
F 4 "Wurth Elektronik " H 10650 3750 50  0001 C CNN "Hersteller"
F 5 "885012207098 " H 10650 3750 50  0001 C CNN "Herstellerteilenummer"
F 6 "710-885012207098 " H 10650 3750 50  0001 C CNN "Mouser"
F 7 "0.06" H 10650 3750 50  0001 C CNN "Kosten_1"
F 8 "0.06" H 10650 3750 50  0001 C CNN "Kosten_10"
F 9 "0.039" H 10650 3750 50  0001 C CNN "Kosten_100"
F 10 "SMD" H 10650 3750 50  0001 C CNN "Technologie"
	1    10650 3750
	1    0    0    -1  
$EndComp
$Comp
L power:GND #PWR0119
U 1 1 5D40A332
P 10650 3900
F 0 "#PWR0119" H 10650 3650 50  0001 C CNN
F 1 "GND" H 10655 3727 50  0000 C CNN
F 2 "" H 10650 3900 50  0001 C CNN
F 3 "" H 10650 3900 50  0001 C CNN
	1    10650 3900
	1    0    0    -1  
$EndComp
Wire Notes Line
	7750 3350 11050 3350
Wire Notes Line
	7750 5600 11050 5600
$Comp
L power:+9V #PWR0120
U 1 1 5D41C30E
P 10650 3600
F 0 "#PWR0120" H 10650 3450 50  0001 C CNN
F 1 "+9V" H 10665 3773 50  0000 C CNN
F 2 "" H 10650 3600 50  0001 C CNN
F 3 "" H 10650 3600 50  0001 C CNN
	1    10650 3600
	1    0    0    -1  
$EndComp
Wire Wire Line
	4300 5050 4500 5050
Wire Wire Line
	4500 5050 4500 4550
NoConn ~ 6350 4050
NoConn ~ 4750 4450
Wire Wire Line
	4500 4550 4750 4550
Wire Wire Line
	5150 5550 5150 5750
NoConn ~ 5250 5550
NoConn ~ 5350 5550
NoConn ~ 5450 5550
NoConn ~ 5550 5550
NoConn ~ 5650 5550
NoConn ~ 5750 5550
NoConn ~ 5850 5550
NoConn ~ 5650 2950
NoConn ~ 5750 2950
NoConn ~ 5350 2950
Wire Wire Line
	5450 2750 5450 2950
$Comp
L Mechanical:Fiducial FID1
U 1 1 5D442AE0
P 1650 7350
F 0 "FID1" H 1735 7396 50  0000 L CNN
F 1 "Fiducial" H 1735 7305 50  0000 L CNN
F 2 "Fiducial:Fiducial_1mm_Mask2mm" H 1650 7350 50  0001 C CNN
F 3 "~" H 1650 7350 50  0001 C CNN
	1    1650 7350
	1    0    0    -1  
$EndComp
$Comp
L Mechanical:Fiducial FID2
U 1 1 5D4430F1
P 1650 7500
F 0 "FID2" H 1735 7546 50  0000 L CNN
F 1 "Fiducial" H 1735 7455 50  0000 L CNN
F 2 "Fiducial:Fiducial_1mm_Mask2mm" H 1650 7500 50  0001 C CNN
F 3 "~" H 1650 7500 50  0001 C CNN
	1    1650 7500
	1    0    0    -1  
$EndComp
$Comp
L Mechanical:Fiducial FID3
U 1 1 5D4432AB
P 1650 7650
F 0 "FID3" H 1735 7696 50  0000 L CNN
F 1 "Fiducial" H 1735 7605 50  0000 L CNN
F 2 "Fiducial:Fiducial_1mm_Mask2mm" H 1650 7650 50  0001 C CNN
F 3 "~" H 1650 7650 50  0001 C CNN
	1    1650 7650
	1    0    0    -1  
$EndComp
$Comp
L Mechanical:Fiducial FID4
U 1 1 5D446BB6
P 2200 7350
F 0 "FID4" H 2285 7396 50  0000 L CNN
F 1 "Fiducial" H 2285 7305 50  0000 L CNN
F 2 "Fiducial:Fiducial_1mm_Mask2mm" H 2200 7350 50  0001 C CNN
F 3 "~" H 2200 7350 50  0001 C CNN
	1    2200 7350
	1    0    0    -1  
$EndComp
$Comp
L Mechanical:Fiducial FID5
U 1 1 5D446BBC
P 2200 7500
F 0 "FID5" H 2285 7546 50  0000 L CNN
F 1 "Fiducial" H 2285 7455 50  0000 L CNN
F 2 "Fiducial:Fiducial_1mm_Mask2mm" H 2200 7500 50  0001 C CNN
F 3 "~" H 2200 7500 50  0001 C CNN
	1    2200 7500
	1    0    0    -1  
$EndComp
$Comp
L Mechanical:Fiducial FID6
U 1 1 5D446BC2
P 2200 7650
F 0 "FID6" H 2285 7696 50  0000 L CNN
F 1 "Fiducial" H 2285 7605 50  0000 L CNN
F 2 "Fiducial:Fiducial_1mm_Mask2mm" H 2200 7650 50  0001 C CNN
F 3 "~" H 2200 7650 50  0001 C CNN
	1    2200 7650
	1    0    0    -1  
$EndComp
$EndSCHEMATC
