EESchema Schematic File Version 4
EELAYER 30 0
EELAYER END
$Descr A4 11693 8268
encoding utf-8
Sheet 4 5
Title "System management"
Date ""
Rev ""
Comp ""
Comment1 ""
Comment2 ""
Comment3 ""
Comment4 ""
$EndDescr
$Comp
L LED:ASMB-MTB0-0A3A2 D?
U 1 1 5D2D7420
P 6650 2350
AR Path="/5DFBD21F/5D2D7420" Ref="D?"  Part="1" 
AR Path="/5D2D3B23/5D2D7420" Ref="D1"  Part="1" 
F 0 "D1" H 6650 2867 50  0000 C CNN
F 1 "ASMB-MTB0-0A306" H 6650 2776 50  0000 C CNN
F 2 "LED_SMD:LED_Avago_PLCC4_3.2x2.8mm_CW" H 6650 2850 50  0001 C CNN
F 3 "" H 6650 1900 50  0001 C CNN
F 4 "ASMB-KTF0-0A306" H 6650 2350 50  0001 C CNN "Herstellerteilenummer"
F 5 "630-ASMB-KTF0-0A306" H 6650 2350 50  0001 C CNN "Mouser"
F 6 "0.216" H 6650 2350 50  0001 C CNN "Kosten_1"
F 7 "0.186" H 6650 2350 50  0001 C CNN "Kosten_10"
F 8 "0.122" H 6650 2350 50  0001 C CNN "Kosten_100"
F 9 "0.09" H 6650 2350 50  0001 C CNN "Kosten_1000"
F 10 "SMD" H 6650 2350 50  0001 C CNN "Technologie"
F 11 "Broadcom / Avago " H 6650 2350 50  0001 C CNN "Hersteller"
	1    6650 2350
	1    0    0    -1  
$EndComp
$Comp
L MCU_Microchip_ATtiny:ATtiny24A-SSU U?
U 1 1 5D2D7426
P 4000 3800
AR Path="/5DFBD21F/5D2D7426" Ref="U?"  Part="1" 
AR Path="/5D2D3B23/5D2D7426" Ref="U6"  Part="1" 
F 0 "U6" H 3900 3900 50  0000 R CNN
F 1 "ATTINY24A-SSU" H 4200 3800 50  0000 R CNN
F 2 "Package_SO:SOIC-14_3.9x8.7mm_P1.27mm" H 4000 3800 50  0001 C CIN
F 3 "http://ww1.microchip.com/downloads/en/DeviceDoc/doc8006.pdf" H 4000 3800 50  0001 C CNN
F 4 "Microchip Technology / Atmel" H 4000 3800 50  0001 C CNN "Hersteller"
F 5 "ATTINY24A-SSU" H 4000 3800 50  0001 C CNN "Herstellerteilenummer"
F 6 "0.63" H 4000 3800 50  0001 C CNN "Kosten_1"
F 7 "0.621" H 4000 3800 50  0001 C CNN "Kosten_10"
F 8 "0.518" H 4000 3800 50  0001 C CNN "Kosten_100"
F 9 "0.518" H 4000 3800 50  0001 C CNN "Kosten_1000"
F 10 "SMD" H 4000 3800 50  0001 C CNN "Technologie"
	1    4000 3800
	1    0    0    -1  
$EndComp
$Comp
L Connector:AVR-ISP-6 J?
U 1 1 5D2D742C
P 6700 3800
AR Path="/5DFBD21F/5D2D742C" Ref="J?"  Part="1" 
AR Path="/5D2D3B23/5D2D742C" Ref="J14"  Part="1" 
AR Path="/5D2D742C" Ref="J14"  Part="1" 
F 0 "J14" H 6420 3896 50  0000 R CNN
F 1 "AVR-ISP-6" H 6420 3805 50  0000 R CNN
F 2 "Connector:Tag-Connect_TC2030-IDC-NL_2x03_P1.27mm_Vertical" V 6450 3850 50  0001 C CNN
F 3 " ~" H 5425 3250 50  0001 C CNN
	1    6700 3800
	-1   0    0    -1  
$EndComp
$Comp
L Device:C C?
U 1 1 5D2D9F23
P 3100 3800
AR Path="/5DFBD21F/5D2D9F23" Ref="C?"  Part="1" 
AR Path="/5D2D3B23/5D2D9F23" Ref="C7"  Part="1" 
F 0 "C7" H 3215 3846 50  0000 L CNN
F 1 "0.1u" H 3215 3755 50  0000 L CNN
F 2 "Capacitor_SMD:C_0805_2012Metric" H 3138 3650 50  0001 C CNN
F 3 "~" H 3100 3800 50  0001 C CNN
F 4 "Wurth Elektronik " H 3100 3800 50  0001 C CNN "Hersteller"
F 5 "885012207098 " H 3100 3800 50  0001 C CNN "Herstellerteilenummer"
F 6 "710-885012207098 " H 3100 3800 50  0001 C CNN "Mouser"
F 7 "0.06" H 3100 3800 50  0001 C CNN "Kosten_1"
F 8 "0.06" H 3100 3800 50  0001 C CNN "Kosten_10"
F 9 "0.039" H 3100 3800 50  0001 C CNN "Kosten_100"
F 10 "SMD" H 3100 3800 50  0001 C CNN "Technologie"
	1    3100 3800
	1    0    0    -1  
$EndComp
$Comp
L Device:Buzzer BZ?
U 1 1 5D2E50F9
P 8600 2550
AR Path="/5D2E50F9" Ref="BZ?"  Part="1" 
AR Path="/5D2D3B23/5D2E50F9" Ref="BZ1"  Part="1" 
F 0 "BZ1" H 8600 2850 50  0000 C CNN
F 1 "254-EMB125-RO" H 8600 2750 50  0000 C CNN
F 2 "Buzzer_Beeper:Buzzer_12x9.5RM7.6" V 8575 2650 50  0001 C CNN
F 3 "~" V 8575 2650 50  0001 C CNN
F 4 "254-EMB125-RO" H 8600 2550 50  0001 C CNN "Mouser"
F 5 "254-EMB125-RO " H 8600 2550 50  0001 C CNN "Herstellerteilenummer"
F 6 "1.54" H 8600 2550 50  0001 C CNN "Kosten_1"
F 7 "1.54" H 8600 2550 50  0001 C CNN "Kosten_10"
F 8 "0.903" H 8600 2550 50  0001 C CNN "Kosten_100"
F 9 "0.764" H 8600 2550 50  0001 C CNN "Kosten_1000"
F 10 "THT" H 8600 2550 50  0001 C CNN "Technologie"
F 11 "Kobitone" H 8600 2550 50  0001 C CNN "Hersteller"
	1    8600 2550
	-1   0    0    -1  
$EndComp
Wire Wire Line
	8800 2450 8700 2450
Wire Wire Line
	8700 2650 8800 2650
Wire Wire Line
	8800 2650 8800 2800
$Comp
L Device:R R?
U 1 1 5D2E5109
P 8250 3000
AR Path="/5D2E5109" Ref="R?"  Part="1" 
AR Path="/5D2D3B23/5D2E5109" Ref="R4"  Part="1" 
F 0 "R4" V 8457 3000 50  0000 C CNN
F 1 "10k" V 8366 3000 50  0000 C CNN
F 2 "Resistor_SMD:R_0805_2012Metric" V 8180 3000 50  0001 C CNN
F 3 "~" H 8250 3000 50  0001 C CNN
F 4 "0.09" H 8250 3000 50  0001 C CNN "Kosten_1"
F 5 "0.052" H 8250 3000 50  0001 C CNN "Kosten_10"
F 6 "0.021" H 8250 3000 50  0001 C CNN "Kosten_100"
F 7 "0.0007" H 8250 3000 50  0001 C CNN "Kosten_1000"
F 8 "SMD" H 8250 3000 50  0001 C CNN "Technologie"
F 9 "Vishay / Dale" H 8250 3000 50  0001 C CNN "Hersteller"
F 10 "CRCW080510K0FKEAC" H 8250 3000 50  0001 C CNN "Herstellerteilenummer"
	1    8250 3000
	0    -1   -1   0   
$EndComp
Wire Wire Line
	8400 3000 8500 3000
$Comp
L power:GND #PWR?
U 1 1 5D2E5110
P 8800 3350
AR Path="/5D2E5110" Ref="#PWR?"  Part="1" 
AR Path="/5D2D3B23/5D2E5110" Ref="#PWR055"  Part="1" 
F 0 "#PWR055" H 8800 3100 50  0001 C CNN
F 1 "GND" H 8805 3177 50  0000 C CNN
F 2 "" H 8800 3350 50  0001 C CNN
F 3 "" H 8800 3350 50  0001 C CNN
	1    8800 3350
	1    0    0    -1  
$EndComp
Wire Wire Line
	8800 3350 8800 3200
$Comp
L Transistor_BJT:BC847 Q?
U 1 1 5D2E5117
P 8700 3000
AR Path="/5D2E5117" Ref="Q?"  Part="1" 
AR Path="/5D2D3B23/5D2E5117" Ref="Q1"  Part="1" 
F 0 "Q1" H 8891 3046 50  0000 L CNN
F 1 "BC847" H 8891 2955 50  0000 L CNN
F 2 "Package_TO_SOT_SMD:SOT-23" H 8900 2925 50  0001 L CIN
F 3 "http://www.infineon.com/dgdl/Infineon-BC847SERIES_BC848SERIES_BC849SERIES_BC850SERIES-DS-v01_01-en.pdf?fileId=db3a304314dca389011541d4630a1657" H 8700 3000 50  0001 L CNN
F 4 "ON Semiconductor" H 8700 3000 50  0001 C CNN "Hersteller"
F 5 "BC847CLT1G" H 8700 3000 50  0001 C CNN "Herstellerteilenummer"
F 6 "0.099" H 8700 3000 50  0001 C CNN "Kosten_1"
F 7 "0.094" H 8700 3000 50  0001 C CNN "Kosten_10"
F 8 "0.032" H 8700 3000 50  0001 C CNN "Kosten_100"
F 9 "0.022" H 8700 3000 50  0001 C CNN "Kosten_1000"
F 10 "SMD" H 8700 3000 50  0001 C CNN "Technologie"
	1    8700 3000
	1    0    0    -1  
$EndComp
$Comp
L power:+5VA #PWR012
U 1 1 5D2E6B70
P 4000 2900
F 0 "#PWR012" H 4000 2750 50  0001 C CNN
F 1 "+5VA" H 4015 3073 50  0000 C CNN
F 2 "" H 4000 2900 50  0001 C CNN
F 3 "" H 4000 2900 50  0001 C CNN
	1    4000 2900
	1    0    0    -1  
$EndComp
$Comp
L power:GND #PWR014
U 1 1 5D2E7542
P 4000 4700
F 0 "#PWR014" H 4000 4450 50  0001 C CNN
F 1 "GND" H 4005 4527 50  0000 C CNN
F 2 "" H 4000 4700 50  0001 C CNN
F 3 "" H 4000 4700 50  0001 C CNN
	1    4000 4700
	1    0    0    -1  
$EndComp
$Comp
L Device:R R1
U 1 1 5D2E7CEE
P 6000 2150
F 0 "R1" V 5793 2150 50  0000 C CNN
F 1 "100" V 5884 2150 50  0000 C CNN
F 2 "Resistor_SMD:R_0805_2012Metric" V 5930 2150 50  0001 C CNN
F 3 "~" H 6000 2150 50  0001 C CNN
F 4 "0.09" H 6000 2150 50  0001 C CNN "Kosten_1"
F 5 "0.047" H 6000 2150 50  0001 C CNN "Kosten_10"
F 6 "0.018" H 6000 2150 50  0001 C CNN "Kosten_100"
F 7 "0.005" H 6000 2150 50  0001 C CNN "Kosten_1000"
F 8 "SMD" H 6000 2150 50  0001 C CNN "Technologie"
F 9 "Vishay / Dale" H 6000 2150 50  0001 C CNN "Hersteller"
F 10 "CRCW0805100RFKEAC" H 6000 2150 50  0001 C CNN "Herstellerteilenummer"
	1    6000 2150
	0    1    1    0   
$EndComp
$Comp
L Device:R R2
U 1 1 5D2E86BE
P 6000 2350
F 0 "R2" V 5793 2350 50  0000 C CNN
F 1 "100" V 5884 2350 50  0000 C CNN
F 2 "Resistor_SMD:R_0805_2012Metric" V 5930 2350 50  0001 C CNN
F 3 "~" H 6000 2350 50  0001 C CNN
F 4 "0.09" H 6000 2350 50  0001 C CNN "Kosten_1"
F 5 "0.047" H 6000 2350 50  0001 C CNN "Kosten_10"
F 6 "0.018" H 6000 2350 50  0001 C CNN "Kosten_100"
F 7 "0.005" H 6000 2350 50  0001 C CNN "Kosten_1000"
F 8 "SMD" H 6000 2350 50  0001 C CNN "Technologie"
F 9 "Vishay / Dale" H 6000 2350 50  0001 C CNN "Hersteller"
F 10 "CRCW0805100RFKEAC" H 6000 2350 50  0001 C CNN "Herstellerteilenummer"
	1    6000 2350
	0    1    1    0   
$EndComp
$Comp
L Device:R R3
U 1 1 5D2E8953
P 6000 2550
F 0 "R3" V 5793 2550 50  0000 C CNN
F 1 "150" V 5884 2550 50  0000 C CNN
F 2 "Resistor_SMD:R_0805_2012Metric" V 5930 2550 50  0001 C CNN
F 3 "~" H 6000 2550 50  0001 C CNN
F 4 "0.09" H 6000 2550 50  0001 C CNN "Kosten_1"
F 5 "0.059" H 6000 2550 50  0001 C CNN "Kosten_10"
F 6 "0.054" H 6000 2550 50  0001 C CNN "Kosten_100"
F 7 "0.024" H 6000 2550 50  0001 C CNN "Kosten_1000"
F 8 "SMD" H 6000 2550 50  0001 C CNN "Technologie"
F 9 "Vishay / Dale" H 6000 2550 50  0001 C CNN "Hersteller"
F 10 "CRCW0805150RFKEA" H 6000 2550 50  0001 C CNN "Herstellerteilenummer"
	1    6000 2550
	0    1    1    0   
$EndComp
Wire Wire Line
	4600 3700 5600 3700
Wire Wire Line
	5600 3700 5600 3600
Wire Wire Line
	5600 3600 6300 3600
Wire Wire Line
	4600 3800 5050 3800
Wire Wire Line
	5650 3800 5650 3700
Wire Wire Line
	5650 3700 6300 3700
Wire Wire Line
	4600 3600 5150 3600
Wire Wire Line
	5550 3600 5550 3500
Wire Wire Line
	5550 3500 6100 3500
Wire Wire Line
	6100 3500 6100 3800
Wire Wire Line
	6100 3800 6300 3800
Wire Wire Line
	4600 4400 5650 4400
Wire Wire Line
	5650 4400 5650 3900
Wire Wire Line
	5650 3900 6300 3900
Wire Wire Line
	6450 2150 6150 2150
Wire Wire Line
	6150 2350 6450 2350
Wire Wire Line
	6450 2550 6150 2550
$Comp
L power:+5VA #PWR053
U 1 1 5D2ED804
P 7000 2250
F 0 "#PWR053" H 7000 2100 50  0001 C CNN
F 1 "+5VA" H 7015 2423 50  0000 C CNN
F 2 "" H 7000 2250 50  0001 C CNN
F 3 "" H 7000 2250 50  0001 C CNN
	1    7000 2250
	1    0    0    -1  
$EndComp
Wire Wire Line
	6850 2350 7000 2350
Wire Wire Line
	7000 2350 7000 2250
Wire Wire Line
	4600 3200 5100 3200
Wire Wire Line
	5100 3200 5100 2150
Wire Wire Line
	5100 2150 5850 2150
Wire Wire Line
	5850 2350 5150 2350
Wire Wire Line
	5150 2350 5150 3300
Wire Wire Line
	5150 3300 4600 3300
Wire Wire Line
	4600 3400 5200 3400
Wire Wire Line
	5200 3400 5200 2550
Wire Wire Line
	5200 2550 5850 2550
Wire Wire Line
	4600 3500 5400 3500
Wire Wire Line
	5400 3500 5400 3000
Wire Wire Line
	5400 3000 8100 3000
Text Label 5350 2550 0    50   ~ 0
LED_RED
Text Label 5350 2350 0    50   ~ 0
LED_GREEN
Text Label 5350 2150 0    50   ~ 0
LED_BLUE
$Comp
L power:+5VA #PWR05
U 1 1 5D2F6029
P 3100 3650
F 0 "#PWR05" H 3100 3500 50  0001 C CNN
F 1 "+5VA" H 3115 3823 50  0000 C CNN
F 2 "" H 3100 3650 50  0001 C CNN
F 3 "" H 3100 3650 50  0001 C CNN
	1    3100 3650
	1    0    0    -1  
$EndComp
$Comp
L power:GND #PWR06
U 1 1 5D2F6544
P 3100 3950
F 0 "#PWR06" H 3100 3700 50  0001 C CNN
F 1 "GND" H 3105 3777 50  0000 C CNN
F 2 "" H 3100 3950 50  0001 C CNN
F 3 "" H 3100 3950 50  0001 C CNN
	1    3100 3950
	1    0    0    -1  
$EndComp
$Comp
L power:+5VA #PWR021
U 1 1 5D2FED1B
P 6800 3300
F 0 "#PWR021" H 6800 3150 50  0001 C CNN
F 1 "+5VA" H 6815 3473 50  0000 C CNN
F 2 "" H 6800 3300 50  0001 C CNN
F 3 "" H 6800 3300 50  0001 C CNN
	1    6800 3300
	1    0    0    -1  
$EndComp
$Comp
L power:GND #PWR022
U 1 1 5D2FF3AC
P 6800 4200
F 0 "#PWR022" H 6800 3950 50  0001 C CNN
F 1 "GND" H 6805 4027 50  0000 C CNN
F 2 "" H 6800 4200 50  0001 C CNN
F 3 "" H 6800 4200 50  0001 C CNN
	1    6800 4200
	1    0    0    -1  
$EndComp
Text HLabel 5250 3900 2    50   Output ~ 0
SYS_EN
Wire Wire Line
	5250 3900 4600 3900
Text HLabel 5300 5000 2    50   BiDi ~ 0
SDA
Text HLabel 5300 4850 2    50   Input ~ 0
SCL
Wire Wire Line
	5300 4850 5150 4850
Wire Wire Line
	5150 4850 5150 3600
Connection ~ 5150 3600
Wire Wire Line
	5150 3600 5550 3600
Wire Wire Line
	5300 5000 5050 5000
Wire Wire Line
	5050 5000 5050 3800
Connection ~ 5050 3800
Wire Wire Line
	5050 3800 5650 3800
NoConn ~ 4600 4300
$Comp
L power:+5VA #PWR0110
U 1 1 5D3C4C8B
P 8800 2050
F 0 "#PWR0110" H 8800 1900 50  0001 C CNN
F 1 "+5VA" H 8815 2223 50  0000 C CNN
F 2 "" H 8800 2050 50  0001 C CNN
F 3 "" H 8800 2050 50  0001 C CNN
	1    8800 2050
	1    0    0    -1  
$EndComp
Wire Wire Line
	8800 2050 8800 2450
$Comp
L Switch:SW_SPST SW1
U 1 1 5D5A8FA5
P 4400 5950
F 0 "SW1" H 4400 6185 50  0000 C CNN
F 1 "SW_SPST" H 4400 6094 50  0000 C CNN
F 2 "MyFootprints:PTS636 SM43 SMTR LFS" H 4400 5950 50  0001 C CNN
F 3 "~" H 4400 5950 50  0001 C CNN
F 4 "C&K" H 4400 5950 50  0001 C CNN "Hersteller"
F 5 "PTS636 SM43 SMTR LFS" H 4400 5950 50  0001 C CNN "Herstellerteilenummer"
F 6 "0.099" H 4400 5950 50  0001 C CNN "Kosten_1"
F 7 "0.093" H 4400 5950 50  0001 C CNN "Kosten_10"
F 8 "0.087" H 4400 5950 50  0001 C CNN "Kosten_100"
F 9 "0.087" H 4400 5950 50  0001 C CNN "Kosten_1000"
F 10 "SMD" H 4400 5950 50  0001 C CNN "Technologie"
	1    4400 5950
	1    0    0    -1  
$EndComp
Wire Wire Line
	4600 4100 4800 4100
Wire Wire Line
	4800 5950 4600 5950
$Comp
L power:GND #PWR018
U 1 1 5D5AAD05
P 4050 6150
F 0 "#PWR018" H 4050 5900 50  0001 C CNN
F 1 "GND" H 4055 5977 50  0000 C CNN
F 2 "" H 4050 6150 50  0001 C CNN
F 3 "" H 4050 6150 50  0001 C CNN
	1    4050 6150
	1    0    0    -1  
$EndComp
Wire Wire Line
	4200 5950 4050 5950
Wire Wire Line
	4050 5950 4050 6150
Text HLabel 3200 5150 0    50   Input ~ 0
WDG_Trigger
Wire Wire Line
	3200 5150 4700 5150
Wire Wire Line
	4700 5150 4700 4200
Wire Wire Line
	4700 4200 4600 4200
Wire Wire Line
	4800 4100 4800 5950
$Comp
L Device:R R10
U 1 1 5D548C2E
P 6000 4400
F 0 "R10" V 5793 4400 50  0000 C CNN
F 1 "10k" V 5884 4400 50  0000 C CNN
F 2 "Resistor_SMD:R_0805_2012Metric" V 5930 4400 50  0001 C CNN
F 3 "~" H 6000 4400 50  0001 C CNN
F 4 "0.09" H 6000 4400 50  0001 C CNN "Kosten_1"
F 5 "0.052" H 6000 4400 50  0001 C CNN "Kosten_10"
F 6 "0.021" H 6000 4400 50  0001 C CNN "Kosten_100"
F 7 "0.0007" H 6000 4400 50  0001 C CNN "Kosten_1000"
F 8 "SMD" H 6000 4400 50  0001 C CNN "Technologie"
F 9 "Vishay / Dale" H 6000 4400 50  0001 C CNN "Hersteller"
F 10 "CRCW080510K0FKEAC" H 6000 4400 50  0001 C CNN "Herstellerteilenummer"
	1    6000 4400
	0    1    1    0   
$EndComp
Wire Wire Line
	5650 4400 5850 4400
Connection ~ 5650 4400
$Comp
L power:+5VA #PWR04
U 1 1 5D54B3DA
P 6300 4300
F 0 "#PWR04" H 6300 4150 50  0001 C CNN
F 1 "+5VA" H 6315 4473 50  0000 C CNN
F 2 "" H 6300 4300 50  0001 C CNN
F 3 "" H 6300 4300 50  0001 C CNN
	1    6300 4300
	1    0    0    -1  
$EndComp
Wire Wire Line
	6150 4400 6300 4400
Wire Wire Line
	6300 4400 6300 4300
Text Label 5700 3500 0    50   ~ 0
SCK
Text Label 5700 3600 0    50   ~ 0
MISO
Text Label 5700 3700 0    50   ~ 0
MOSI
Text Label 5750 3900 0    50   ~ 0
nRST
$EndSCHEMATC
